\relax 
\providecommand\HyperFirstAtBeginDocument{\AtBeginDocument}
\HyperFirstAtBeginDocument{\ifx\hyper@anchor\@undefined
\global\let\oldcontentsline\contentsline
\gdef\contentsline#1#2#3#4{\oldcontentsline{#1}{#2}{#3}}
\global\let\oldnewlabel\newlabel
\gdef\newlabel#1#2{\newlabelxx{#1}#2}
\gdef\newlabelxx#1#2#3#4#5#6{\oldnewlabel{#1}{{#2}{#3}}}
\AtEndDocument{\ifx\hyper@anchor\@undefined
\let\contentsline\oldcontentsline
\let\newlabel\oldnewlabel
\fi}
\fi}
\global\let\hyper@last\relax 
\gdef\HyperFirstAtBeginDocument#1{#1}
\providecommand\HyField@AuxAddToFields[1]{}
\@writefile{toc}{\contentsline {chapter}{\numberline {1}Data Structure Index}{1}{chapter.1}}
\@writefile{lof}{\addvspace {10\p@ }}
\@writefile{lot}{\addvspace {10\p@ }}
\@writefile{toc}{\contentsline {section}{\numberline {1.1}Data Structures}{1}{section.1.1}}
\@writefile{toc}{\contentsline {chapter}{\numberline {2}File Index}{3}{chapter.2}}
\@writefile{lof}{\addvspace {10\p@ }}
\@writefile{lot}{\addvspace {10\p@ }}
\@writefile{toc}{\contentsline {section}{\numberline {2.1}File List}{3}{section.2.1}}
\@writefile{toc}{\contentsline {chapter}{\numberline {3}Data Structure Documentation}{5}{chapter.3}}
\@writefile{lof}{\addvspace {10\p@ }}
\@writefile{lot}{\addvspace {10\p@ }}
\@writefile{toc}{\contentsline {section}{\numberline {3.1}strActuators Struct Reference}{5}{section.3.1}}
\newlabel{structstr_actuators}{{3.1}{5}{strActuators Struct Reference\relax }{section.3.1}{}}
\@writefile{toc}{\contentsline {subsection}{\numberline {3.1.1}Detailed Description}{5}{subsection.3.1.1}}
\@writefile{toc}{\contentsline {subsection}{\numberline {3.1.2}Field Documentation}{5}{subsection.3.1.2}}
\@writefile{toc}{\contentsline {subsubsection}{\numberline {3.1.2.1}bloodPump}{5}{subsubsection.3.1.2.1}}
\newlabel{structstr_actuators_ad2c3e0c98d96da604e88c00b81494948}{{3.1.2.1}{5}{bloodPump\relax }{subsubsection.3.1.2.1}{}}
\@writefile{toc}{\contentsline {subsubsection}{\numberline {3.1.2.2}fluidPump}{5}{subsubsection.3.1.2.2}}
\newlabel{structstr_actuators_af6936b9e3e845de959b5bbf2e1c53f6f}{{3.1.2.2}{5}{fluidPump\relax }{subsubsection.3.1.2.2}{}}
\@writefile{toc}{\contentsline {subsubsection}{\numberline {3.1.2.3}polarizer}{6}{subsubsection.3.1.2.3}}
\newlabel{structstr_actuators_aa307c8678fc9f66a94ab994bb625b993}{{3.1.2.3}{6}{polarizer\relax }{subsubsection.3.1.2.3}{}}
\@writefile{toc}{\contentsline {subsubsection}{\numberline {3.1.2.4}switch1}{6}{subsubsection.3.1.2.4}}
\newlabel{structstr_actuators_ac634ccb41bf59249db355e31a2afd6ec}{{3.1.2.4}{6}{switch1\relax }{subsubsection.3.1.2.4}{}}
\@writefile{toc}{\contentsline {subsubsection}{\numberline {3.1.2.5}switch2}{6}{subsubsection.3.1.2.5}}
\newlabel{structstr_actuators_ad75efd2f9b06ecdbc7af2a3662859f37}{{3.1.2.5}{6}{switch2\relax }{subsubsection.3.1.2.5}{}}
\@writefile{toc}{\contentsline {subsubsection}{\numberline {3.1.2.6}timestamp}{6}{subsubsection.3.1.2.6}}
\newlabel{structstr_actuators_ab6af8ef3600d841d545b468a4c46f503}{{3.1.2.6}{6}{timestamp\relax }{subsubsection.3.1.2.6}{}}
\@writefile{toc}{\contentsline {section}{\numberline {3.2}strParametersSCC Struct Reference}{6}{section.3.2}}
\newlabel{structstr_parameters_s_c_c}{{3.2}{6}{strParametersSCC Struct Reference\relax }{section.3.2}{}}
\@writefile{toc}{\contentsline {subsection}{\numberline {3.2.1}Detailed Description}{8}{subsection.3.2.1}}
\@writefile{toc}{\contentsline {subsection}{\numberline {3.2.2}Field Documentation}{8}{subsection.3.2.2}}
\@writefile{toc}{\contentsline {subsubsection}{\numberline {3.2.2.1}A\_\discretionary {-}{}{}dm2}{8}{subsubsection.3.2.2.1}}
\newlabel{structstr_parameters_s_c_c_aadcc38262da134d611bc48bbe7a59886}{{3.2.2.1}{8}{A\_\-dm2\relax }{subsubsection.3.2.2.1}{}}
\@writefile{toc}{\contentsline {subsubsection}{\numberline {3.2.2.2}BatStatT}{9}{subsubsection.3.2.2.2}}
\newlabel{structstr_parameters_s_c_c_a2c10780cdf277203f142d8a666e2369a}{{3.2.2.2}{9}{BatStatT\relax }{subsubsection.3.2.2.2}{}}
\@writefile{toc}{\contentsline {subsubsection}{\numberline {3.2.2.3}BPdiaAAbsH}{9}{subsubsection.3.2.2.3}}
\newlabel{structstr_parameters_s_c_c_a2a52c47424dc845f824cf345b88f8cbd}{{3.2.2.3}{9}{BPdiaAAbsH\relax }{subsubsection.3.2.2.3}{}}
\@writefile{toc}{\contentsline {subsubsection}{\numberline {3.2.2.4}BPdiaAbsH}{9}{subsubsection.3.2.2.4}}
\newlabel{structstr_parameters_s_c_c_ad406e32c877d62f483df8d605a002d74}{{3.2.2.4}{9}{BPdiaAbsH\relax }{subsubsection.3.2.2.4}{}}
\@writefile{toc}{\contentsline {subsubsection}{\numberline {3.2.2.5}BPdiaAbsL}{9}{subsubsection.3.2.2.5}}
\newlabel{structstr_parameters_s_c_c_ac6aa4bd9cfa1120055785ec87ec726ae}{{3.2.2.5}{9}{BPdiaAbsL\relax }{subsubsection.3.2.2.5}{}}
\@writefile{toc}{\contentsline {subsubsection}{\numberline {3.2.2.6}BPSiTH}{9}{subsubsection.3.2.2.6}}
\newlabel{structstr_parameters_s_c_c_a87c6efbc598ccbbbf595f4985457aa80}{{3.2.2.6}{9}{BPSiTH\relax }{subsubsection.3.2.2.6}{}}
\@writefile{toc}{\contentsline {subsubsection}{\numberline {3.2.2.7}BPSiTL}{9}{subsubsection.3.2.2.7}}
\newlabel{structstr_parameters_s_c_c_a9b77ef6bbe7cbeac13c847b5d54fe8d9}{{3.2.2.7}{9}{BPSiTL\relax }{subsubsection.3.2.2.7}{}}
\@writefile{toc}{\contentsline {subsubsection}{\numberline {3.2.2.8}BPSoTH}{9}{subsubsection.3.2.2.8}}
\newlabel{structstr_parameters_s_c_c_aed7f9d261992f2a5a3bb93128970ee25}{{3.2.2.8}{9}{BPSoTH\relax }{subsubsection.3.2.2.8}{}}
\@writefile{toc}{\contentsline {subsubsection}{\numberline {3.2.2.9}BPSoTL}{9}{subsubsection.3.2.2.9}}
\newlabel{structstr_parameters_s_c_c_ab1880542d1f7ee99ef8f0a819579f260}{{3.2.2.9}{9}{BPSoTL\relax }{subsubsection.3.2.2.9}{}}
\@writefile{toc}{\contentsline {subsubsection}{\numberline {3.2.2.10}BPsysAAbsH}{9}{subsubsection.3.2.2.10}}
\newlabel{structstr_parameters_s_c_c_aaa88b8d0cec482b40e6744d08e378ee4}{{3.2.2.10}{9}{BPsysAAbsH\relax }{subsubsection.3.2.2.10}{}}
\@writefile{toc}{\contentsline {subsubsection}{\numberline {3.2.2.11}BPsysAbsH}{9}{subsubsection.3.2.2.11}}
\newlabel{structstr_parameters_s_c_c_a5babc8cdf61146befe9ec80f9f78cd07}{{3.2.2.11}{9}{BPsysAbsH\relax }{subsubsection.3.2.2.11}{}}
\@writefile{toc}{\contentsline {subsubsection}{\numberline {3.2.2.12}BPsysAbsL}{10}{subsubsection.3.2.2.12}}
\newlabel{structstr_parameters_s_c_c_a7774877d9b8a3967169269f8e8e1045e}{{3.2.2.12}{10}{BPsysAbsL\relax }{subsubsection.3.2.2.12}{}}
\@writefile{toc}{\contentsline {subsubsection}{\numberline {3.2.2.13}BTSiTH}{10}{subsubsection.3.2.2.13}}
\newlabel{structstr_parameters_s_c_c_a00b98c7af13e62111471fe2eea3e24f3}{{3.2.2.13}{10}{BTSiTH\relax }{subsubsection.3.2.2.13}{}}
\@writefile{toc}{\contentsline {subsubsection}{\numberline {3.2.2.14}BTSiTL}{10}{subsubsection.3.2.2.14}}
\newlabel{structstr_parameters_s_c_c_a96b41c14ff5c5f8ccff099156c092b8b}{{3.2.2.14}{10}{BTSiTL\relax }{subsubsection.3.2.2.14}{}}
\@writefile{toc}{\contentsline {subsubsection}{\numberline {3.2.2.15}BTSoTH}{10}{subsubsection.3.2.2.15}}
\newlabel{structstr_parameters_s_c_c_a831d9dab888f69d09f12e71e8db82ea9}{{3.2.2.15}{10}{BTSoTH\relax }{subsubsection.3.2.2.15}{}}
\@writefile{toc}{\contentsline {subsubsection}{\numberline {3.2.2.16}BTSoTL}{10}{subsubsection.3.2.2.16}}
\newlabel{structstr_parameters_s_c_c_aabeaffc8a95d446340a2c3755bd14f0c}{{3.2.2.16}{10}{BTSoTL\relax }{subsubsection.3.2.2.16}{}}
\@writefile{toc}{\contentsline {subsubsection}{\numberline {3.2.2.17}CaAAbsH}{10}{subsubsection.3.2.2.17}}
\newlabel{structstr_parameters_s_c_c_aa3ca88a1493489d4c2ec7e87a8d7f53a}{{3.2.2.17}{10}{CaAAbsH\relax }{subsubsection.3.2.2.17}{}}
\@writefile{toc}{\contentsline {subsubsection}{\numberline {3.2.2.18}CaAAbsL}{10}{subsubsection.3.2.2.18}}
\newlabel{structstr_parameters_s_c_c_a6bc4a5d6dd99f3df75c3066cb27b9d22}{{3.2.2.18}{10}{CaAAbsL\relax }{subsubsection.3.2.2.18}{}}
\@writefile{toc}{\contentsline {subsubsection}{\numberline {3.2.2.19}CaAbsH}{10}{subsubsection.3.2.2.19}}
\newlabel{structstr_parameters_s_c_c_ad9f1818acfc1e199a71f34dff4a504e9}{{3.2.2.19}{10}{CaAbsH\relax }{subsubsection.3.2.2.19}{}}
\@writefile{toc}{\contentsline {subsubsection}{\numberline {3.2.2.20}CaAbsL}{10}{subsubsection.3.2.2.20}}
\newlabel{structstr_parameters_s_c_c_ab551de7172d9bf976b5d2a565893f721}{{3.2.2.20}{10}{CaAbsL\relax }{subsubsection.3.2.2.20}{}}
\@writefile{toc}{\contentsline {subsubsection}{\numberline {3.2.2.21}CaAdr}{10}{subsubsection.3.2.2.21}}
\newlabel{structstr_parameters_s_c_c_a957121a1e2f327d58c371407afdd684b}{{3.2.2.21}{10}{CaAdr\relax }{subsubsection.3.2.2.21}{}}
\@writefile{toc}{\contentsline {subsubsection}{\numberline {3.2.2.22}cap\_\discretionary {-}{}{}K}{11}{subsubsection.3.2.2.22}}
\newlabel{structstr_parameters_s_c_c_a9dee950a7cfdd17e27f7bea92272b327}{{3.2.2.22}{11}{cap\_\-K\relax }{subsubsection.3.2.2.22}{}}
\@writefile{toc}{\contentsline {subsubsection}{\numberline {3.2.2.23}cap\_\discretionary {-}{}{}Ph}{11}{subsubsection.3.2.2.23}}
\newlabel{structstr_parameters_s_c_c_af49de1642434c13a34f38acef0a60021}{{3.2.2.23}{11}{cap\_\-Ph\relax }{subsubsection.3.2.2.23}{}}
\@writefile{toc}{\contentsline {subsubsection}{\numberline {3.2.2.24}CaTrdHPsT}{11}{subsubsection.3.2.2.24}}
\newlabel{structstr_parameters_s_c_c_a152b5ce65cc7d26f0db56cca66af281b}{{3.2.2.24}{11}{CaTrdHPsT\relax }{subsubsection.3.2.2.24}{}}
\@writefile{toc}{\contentsline {subsubsection}{\numberline {3.2.2.25}CaTrdHT}{11}{subsubsection.3.2.2.25}}
\newlabel{structstr_parameters_s_c_c_a6cfc10eb6f0b747fe5755fc4fc37ae34}{{3.2.2.25}{11}{CaTrdHT\relax }{subsubsection.3.2.2.25}{}}
\@writefile{toc}{\contentsline {subsubsection}{\numberline {3.2.2.26}CaTrdLPsT}{11}{subsubsection.3.2.2.26}}
\newlabel{structstr_parameters_s_c_c_aeec96bc54ac2e3f84ae071b65e9f7bb2}{{3.2.2.26}{11}{CaTrdLPsT\relax }{subsubsection.3.2.2.26}{}}
\@writefile{toc}{\contentsline {subsubsection}{\numberline {3.2.2.27}CaTrdLT}{11}{subsubsection.3.2.2.27}}
\newlabel{structstr_parameters_s_c_c_aab3b079ad941b56db3b711dbb2794187}{{3.2.2.27}{11}{CaTrdLT\relax }{subsubsection.3.2.2.27}{}}
\@writefile{toc}{\contentsline {subsubsection}{\numberline {3.2.2.28}CreaAbsH}{11}{subsubsection.3.2.2.28}}
\newlabel{structstr_parameters_s_c_c_a35ba59bba25324923df24626587fd119}{{3.2.2.28}{11}{CreaAbsH\relax }{subsubsection.3.2.2.28}{}}
\@writefile{toc}{\contentsline {subsubsection}{\numberline {3.2.2.29}CreaAbsL}{11}{subsubsection.3.2.2.29}}
\newlabel{structstr_parameters_s_c_c_af197b941a173026911ddef846445c978}{{3.2.2.29}{11}{CreaAbsL\relax }{subsubsection.3.2.2.29}{}}
\@writefile{toc}{\contentsline {subsubsection}{\numberline {3.2.2.30}CreaAdr}{11}{subsubsection.3.2.2.30}}
\newlabel{structstr_parameters_s_c_c_af8c67c0ad84e6c22d50f14efee641998}{{3.2.2.30}{11}{CreaAdr\relax }{subsubsection.3.2.2.30}{}}
\@writefile{toc}{\contentsline {subsubsection}{\numberline {3.2.2.31}CreaTrdHPsT}{11}{subsubsection.3.2.2.31}}
\newlabel{structstr_parameters_s_c_c_a06a7599dc511c973e603e3df60540b25}{{3.2.2.31}{11}{CreaTrdHPsT\relax }{subsubsection.3.2.2.31}{}}
\@writefile{toc}{\contentsline {subsubsection}{\numberline {3.2.2.32}CreaTrdHT}{12}{subsubsection.3.2.2.32}}
\newlabel{structstr_parameters_s_c_c_a54878c8bc96db4e8a411646193a6e456}{{3.2.2.32}{12}{CreaTrdHT\relax }{subsubsection.3.2.2.32}{}}
\@writefile{toc}{\contentsline {subsubsection}{\numberline {3.2.2.33}f\_\discretionary {-}{}{}K}{12}{subsubsection.3.2.2.33}}
\newlabel{structstr_parameters_s_c_c_a7197e4c2e41b3c93375a10179d7a56e7}{{3.2.2.33}{12}{f\_\-K\relax }{subsubsection.3.2.2.33}{}}
\@writefile{toc}{\contentsline {subsubsection}{\numberline {3.2.2.34}f\_\discretionary {-}{}{}Ph}{12}{subsubsection.3.2.2.34}}
\newlabel{structstr_parameters_s_c_c_a38e0b9e93f7db73813d40eb9baa3a2bf}{{3.2.2.34}{12}{f\_\-Ph\relax }{subsubsection.3.2.2.34}{}}
\@writefile{toc}{\contentsline {subsubsection}{\numberline {3.2.2.35}FDpTH}{12}{subsubsection.3.2.2.35}}
\newlabel{structstr_parameters_s_c_c_a2e06ee4f2484b8148b9b188c7fd4ff08}{{3.2.2.35}{12}{FDpTH\relax }{subsubsection.3.2.2.35}{}}
\@writefile{toc}{\contentsline {subsubsection}{\numberline {3.2.2.36}FDpTL}{12}{subsubsection.3.2.2.36}}
\newlabel{structstr_parameters_s_c_c_a7c3336977e2aac73686c29d7fa6583f6}{{3.2.2.36}{12}{FDpTL\relax }{subsubsection.3.2.2.36}{}}
\@writefile{toc}{\contentsline {subsubsection}{\numberline {3.2.2.37}FPS1TH}{12}{subsubsection.3.2.2.37}}
\newlabel{structstr_parameters_s_c_c_ab3a02a04f567e2fb34ceb5dfe632c4c9}{{3.2.2.37}{12}{FPS1TH\relax }{subsubsection.3.2.2.37}{}}
\@writefile{toc}{\contentsline {subsubsection}{\numberline {3.2.2.38}FPS1TL}{12}{subsubsection.3.2.2.38}}
\newlabel{structstr_parameters_s_c_c_a96368b66b623a3fa6949d8e123be155d}{{3.2.2.38}{12}{FPS1TL\relax }{subsubsection.3.2.2.38}{}}
\@writefile{toc}{\contentsline {subsubsection}{\numberline {3.2.2.39}FPS2TH}{12}{subsubsection.3.2.2.39}}
\newlabel{structstr_parameters_s_c_c_a38a657d2713432f635f31ad66c5cdde0}{{3.2.2.39}{12}{FPS2TH\relax }{subsubsection.3.2.2.39}{}}
\@writefile{toc}{\contentsline {subsubsection}{\numberline {3.2.2.40}FPS2TL}{12}{subsubsection.3.2.2.40}}
\newlabel{structstr_parameters_s_c_c_abeaaa2d3c7735163995587bc77d83e44}{{3.2.2.40}{12}{FPS2TL\relax }{subsubsection.3.2.2.40}{}}
\@writefile{toc}{\contentsline {subsubsection}{\numberline {3.2.2.41}Fref\_\discretionary {-}{}{}K}{12}{subsubsection.3.2.2.41}}
\newlabel{structstr_parameters_s_c_c_a9956b863d0d06ef9c7de0d3b3f41a9e8}{{3.2.2.41}{12}{Fref\_\-K\relax }{subsubsection.3.2.2.41}{}}
\@writefile{toc}{\contentsline {subsubsection}{\numberline {3.2.2.42}Fref\_\discretionary {-}{}{}Ph}{13}{subsubsection.3.2.2.42}}
\newlabel{structstr_parameters_s_c_c_a27f39377c4497314483bf2e6e374c480}{{3.2.2.42}{13}{Fref\_\-Ph\relax }{subsubsection.3.2.2.42}{}}
\@writefile{toc}{\contentsline {subsubsection}{\numberline {3.2.2.43}HCO3AAbsL}{13}{subsubsection.3.2.2.43}}
\newlabel{structstr_parameters_s_c_c_a4d9dcfcac895e439db1e3385744193d9}{{3.2.2.43}{13}{HCO3AAbsL\relax }{subsubsection.3.2.2.43}{}}
\@writefile{toc}{\contentsline {subsubsection}{\numberline {3.2.2.44}HCO3AbsH}{13}{subsubsection.3.2.2.44}}
\newlabel{structstr_parameters_s_c_c_a876585fea9dec1321d371cdde6f7feda}{{3.2.2.44}{13}{HCO3AbsH\relax }{subsubsection.3.2.2.44}{}}
\@writefile{toc}{\contentsline {subsubsection}{\numberline {3.2.2.45}HCO3AbsL}{13}{subsubsection.3.2.2.45}}
\newlabel{structstr_parameters_s_c_c_a198eabf1e5d6f69fd419e7b6942b3ea4}{{3.2.2.45}{13}{HCO3AbsL\relax }{subsubsection.3.2.2.45}{}}
\@writefile{toc}{\contentsline {subsubsection}{\numberline {3.2.2.46}HCO3Adr}{13}{subsubsection.3.2.2.46}}
\newlabel{structstr_parameters_s_c_c_a37c167ce729c363676a626182db015bc}{{3.2.2.46}{13}{HCO3Adr\relax }{subsubsection.3.2.2.46}{}}
\@writefile{toc}{\contentsline {subsubsection}{\numberline {3.2.2.47}HCO3TrdHPsT}{13}{subsubsection.3.2.2.47}}
\newlabel{structstr_parameters_s_c_c_ada27b2470d8a3ab3fa583d1b01d3d58f}{{3.2.2.47}{13}{HCO3TrdHPsT\relax }{subsubsection.3.2.2.47}{}}
\@writefile{toc}{\contentsline {subsubsection}{\numberline {3.2.2.48}HCO3TrdHT}{13}{subsubsection.3.2.2.48}}
\newlabel{structstr_parameters_s_c_c_afc61827a97a643effa4bde3d486ec93c}{{3.2.2.48}{13}{HCO3TrdHT\relax }{subsubsection.3.2.2.48}{}}
\@writefile{toc}{\contentsline {subsubsection}{\numberline {3.2.2.49}HCO3TrdLPsT}{13}{subsubsection.3.2.2.49}}
\newlabel{structstr_parameters_s_c_c_af8eb651dde7e407d7def773c8e47ef9c}{{3.2.2.49}{13}{HCO3TrdLPsT\relax }{subsubsection.3.2.2.49}{}}
\@writefile{toc}{\contentsline {subsubsection}{\numberline {3.2.2.50}HCO3TrdLT}{13}{subsubsection.3.2.2.50}}
\newlabel{structstr_parameters_s_c_c_a02c386aed13f860904655b69dfc911aa}{{3.2.2.50}{13}{HCO3TrdLT\relax }{subsubsection.3.2.2.50}{}}
\@writefile{toc}{\contentsline {subsubsection}{\numberline {3.2.2.51}KAAH}{13}{subsubsection.3.2.2.51}}
\newlabel{structstr_parameters_s_c_c_a18f798aad0f4b55193f26790445a0206}{{3.2.2.51}{13}{KAAH\relax }{subsubsection.3.2.2.51}{}}
\@writefile{toc}{\contentsline {subsubsection}{\numberline {3.2.2.52}KAAL}{14}{subsubsection.3.2.2.52}}
\newlabel{structstr_parameters_s_c_c_a86aba4de0fdf8a69f7a345ddf76ecd15}{{3.2.2.52}{14}{KAAL\relax }{subsubsection.3.2.2.52}{}}
\@writefile{toc}{\contentsline {subsubsection}{\numberline {3.2.2.53}KAbsH}{14}{subsubsection.3.2.2.53}}
\newlabel{structstr_parameters_s_c_c_ab9ee656b0a0f67de46397e2d9c400f2a}{{3.2.2.53}{14}{KAbsH\relax }{subsubsection.3.2.2.53}{}}
\@writefile{toc}{\contentsline {subsubsection}{\numberline {3.2.2.54}KAbsL}{14}{subsubsection.3.2.2.54}}
\newlabel{structstr_parameters_s_c_c_ab51448abc59908f363866734f6dec346}{{3.2.2.54}{14}{KAbsL\relax }{subsubsection.3.2.2.54}{}}
\@writefile{toc}{\contentsline {subsubsection}{\numberline {3.2.2.55}KTrdHPsT}{14}{subsubsection.3.2.2.55}}
\newlabel{structstr_parameters_s_c_c_a0bd40871d061fcbf39c4f249a51b0a1d}{{3.2.2.55}{14}{KTrdHPsT\relax }{subsubsection.3.2.2.55}{}}
\@writefile{toc}{\contentsline {subsubsection}{\numberline {3.2.2.56}KTrdHT}{14}{subsubsection.3.2.2.56}}
\newlabel{structstr_parameters_s_c_c_aaff09ef3919dd5b1c2b67787462b5acb}{{3.2.2.56}{14}{KTrdHT\relax }{subsubsection.3.2.2.56}{}}
\@writefile{toc}{\contentsline {subsubsection}{\numberline {3.2.2.57}KTrdLPsT}{14}{subsubsection.3.2.2.57}}
\newlabel{structstr_parameters_s_c_c_a68bf6dc9fd3bc3d16cc22f808ab2f2e1}{{3.2.2.57}{14}{KTrdLPsT\relax }{subsubsection.3.2.2.57}{}}
\@writefile{toc}{\contentsline {subsubsection}{\numberline {3.2.2.58}KTrdLT}{14}{subsubsection.3.2.2.58}}
\newlabel{structstr_parameters_s_c_c_a79409d1657373dc59f54095da1be1770}{{3.2.2.58}{14}{KTrdLT\relax }{subsubsection.3.2.2.58}{}}
\@writefile{toc}{\contentsline {subsubsection}{\numberline {3.2.2.59}mspT}{14}{subsubsection.3.2.2.59}}
\newlabel{structstr_parameters_s_c_c_a2324f47446f460bfc52f4a4c6423efe2}{{3.2.2.59}{14}{mspT\relax }{subsubsection.3.2.2.59}{}}
\@writefile{toc}{\contentsline {subsubsection}{\numberline {3.2.2.60}NaAbsH}{14}{subsubsection.3.2.2.60}}
\newlabel{structstr_parameters_s_c_c_a8be03eabd0cb918cc259cb354e1cd793}{{3.2.2.60}{14}{NaAbsH\relax }{subsubsection.3.2.2.60}{}}
\@writefile{toc}{\contentsline {subsubsection}{\numberline {3.2.2.61}NaAbsL}{14}{subsubsection.3.2.2.61}}
\newlabel{structstr_parameters_s_c_c_a52ce1016d0660e8ffa62e326765f3c64}{{3.2.2.61}{14}{NaAbsL\relax }{subsubsection.3.2.2.61}{}}
\@writefile{toc}{\contentsline {subsubsection}{\numberline {3.2.2.62}NaTrdHPsT}{15}{subsubsection.3.2.2.62}}
\newlabel{structstr_parameters_s_c_c_a5b06d46086a5cd655cab37ffa73bbc94}{{3.2.2.62}{15}{NaTrdHPsT\relax }{subsubsection.3.2.2.62}{}}
\@writefile{toc}{\contentsline {subsubsection}{\numberline {3.2.2.63}NaTrdHT}{15}{subsubsection.3.2.2.63}}
\newlabel{structstr_parameters_s_c_c_a50c5653b06603e6e69eddad74cf7b66f}{{3.2.2.63}{15}{NaTrdHT\relax }{subsubsection.3.2.2.63}{}}
\@writefile{toc}{\contentsline {subsubsection}{\numberline {3.2.2.64}NaTrdLPsT}{15}{subsubsection.3.2.2.64}}
\newlabel{structstr_parameters_s_c_c_a62418445c10569f46e3ea3baaa29b99c}{{3.2.2.64}{15}{NaTrdLPsT\relax }{subsubsection.3.2.2.64}{}}
\@writefile{toc}{\contentsline {subsubsection}{\numberline {3.2.2.65}NaTrdLT}{15}{subsubsection.3.2.2.65}}
\newlabel{structstr_parameters_s_c_c_af223ded7ac5d745b25f9c563012f0e6f}{{3.2.2.65}{15}{NaTrdLT\relax }{subsubsection.3.2.2.65}{}}
\@writefile{toc}{\contentsline {subsubsection}{\numberline {3.2.2.66}P\_\discretionary {-}{}{}K}{15}{subsubsection.3.2.2.66}}
\newlabel{structstr_parameters_s_c_c_abf190311f6d85cc3e4b46c9cffdd5085}{{3.2.2.66}{15}{P\_\-K\relax }{subsubsection.3.2.2.66}{}}
\@writefile{toc}{\contentsline {subsubsection}{\numberline {3.2.2.67}P\_\discretionary {-}{}{}Ph}{15}{subsubsection.3.2.2.67}}
\newlabel{structstr_parameters_s_c_c_a2547ead34e46042a4abb036fadb04596}{{3.2.2.67}{15}{P\_\-Ph\relax }{subsubsection.3.2.2.67}{}}
\@writefile{toc}{\contentsline {subsubsection}{\numberline {3.2.2.68}PhAAbsH}{15}{subsubsection.3.2.2.68}}
\newlabel{structstr_parameters_s_c_c_ab257bf7889353f046b590f633851a7bd}{{3.2.2.68}{15}{PhAAbsH\relax }{subsubsection.3.2.2.68}{}}
\@writefile{toc}{\contentsline {subsubsection}{\numberline {3.2.2.69}PhAAbsL}{15}{subsubsection.3.2.2.69}}
\newlabel{structstr_parameters_s_c_c_ae87ede0040d4bd2390090d52ee4fbfc0}{{3.2.2.69}{15}{PhAAbsL\relax }{subsubsection.3.2.2.69}{}}
\@writefile{toc}{\contentsline {subsubsection}{\numberline {3.2.2.70}PhAbsH}{15}{subsubsection.3.2.2.70}}
\newlabel{structstr_parameters_s_c_c_a85a2d91d1fcd1f6a3391a42c00ee7417}{{3.2.2.70}{15}{PhAbsH\relax }{subsubsection.3.2.2.70}{}}
\@writefile{toc}{\contentsline {subsubsection}{\numberline {3.2.2.71}PhAbsL}{15}{subsubsection.3.2.2.71}}
\newlabel{structstr_parameters_s_c_c_aae5b6372a9e30e26e509d7c622939ec4}{{3.2.2.71}{15}{PhAbsL\relax }{subsubsection.3.2.2.71}{}}
\@writefile{toc}{\contentsline {subsubsection}{\numberline {3.2.2.72}PhosAAbsH}{16}{subsubsection.3.2.2.72}}
\newlabel{structstr_parameters_s_c_c_a8bf4a38c56dc29212f1d4fd15fe8cf25}{{3.2.2.72}{16}{PhosAAbsH\relax }{subsubsection.3.2.2.72}{}}
\@writefile{toc}{\contentsline {subsubsection}{\numberline {3.2.2.73}PhosAbsH}{16}{subsubsection.3.2.2.73}}
\newlabel{structstr_parameters_s_c_c_aafd7964a1bd031e30ddfe4618278c87c}{{3.2.2.73}{16}{PhosAbsH\relax }{subsubsection.3.2.2.73}{}}
\@writefile{toc}{\contentsline {subsubsection}{\numberline {3.2.2.74}PhosAbsL}{16}{subsubsection.3.2.2.74}}
\newlabel{structstr_parameters_s_c_c_adae8c97fc2f85aa6864860c321cfd8ca}{{3.2.2.74}{16}{PhosAbsL\relax }{subsubsection.3.2.2.74}{}}
\@writefile{toc}{\contentsline {subsubsection}{\numberline {3.2.2.75}PhosTrdHPsT}{16}{subsubsection.3.2.2.75}}
\newlabel{structstr_parameters_s_c_c_ade615757c934a2adf24a0ee0b949e6ea}{{3.2.2.75}{16}{PhosTrdHPsT\relax }{subsubsection.3.2.2.75}{}}
\@writefile{toc}{\contentsline {subsubsection}{\numberline {3.2.2.76}PhosTrdHT}{16}{subsubsection.3.2.2.76}}
\newlabel{structstr_parameters_s_c_c_a801c39cbe70c0cb2387a35b471d6a57a}{{3.2.2.76}{16}{PhosTrdHT\relax }{subsubsection.3.2.2.76}{}}
\@writefile{toc}{\contentsline {subsubsection}{\numberline {3.2.2.77}PhosTrdLPsT}{16}{subsubsection.3.2.2.77}}
\newlabel{structstr_parameters_s_c_c_a2ec606534bbf0c2e5522f57b522cf23b}{{3.2.2.77}{16}{PhosTrdLPsT\relax }{subsubsection.3.2.2.77}{}}
\@writefile{toc}{\contentsline {subsubsection}{\numberline {3.2.2.78}PhosTrdLT}{16}{subsubsection.3.2.2.78}}
\newlabel{structstr_parameters_s_c_c_a073ed3a806f12ed6957c169361e56ee7}{{3.2.2.78}{16}{PhosTrdLT\relax }{subsubsection.3.2.2.78}{}}
\@writefile{toc}{\contentsline {subsubsection}{\numberline {3.2.2.79}PhTrdHPsT}{16}{subsubsection.3.2.2.79}}
\newlabel{structstr_parameters_s_c_c_aecd11c6815da3ccfa0ab4934ed5b1111}{{3.2.2.79}{16}{PhTrdHPsT\relax }{subsubsection.3.2.2.79}{}}
\@writefile{toc}{\contentsline {subsubsection}{\numberline {3.2.2.80}PhTrdHT}{16}{subsubsection.3.2.2.80}}
\newlabel{structstr_parameters_s_c_c_ab63982e35017291dc691430af064a464}{{3.2.2.80}{16}{PhTrdHT\relax }{subsubsection.3.2.2.80}{}}
\@writefile{toc}{\contentsline {subsubsection}{\numberline {3.2.2.81}PhTrdLPsT}{16}{subsubsection.3.2.2.81}}
\newlabel{structstr_parameters_s_c_c_a826d5f84e6a9d8d22fa4eca9ebeb437a}{{3.2.2.81}{16}{PhTrdLPsT\relax }{subsubsection.3.2.2.81}{}}
\@writefile{toc}{\contentsline {subsubsection}{\numberline {3.2.2.82}PhTrdLT}{17}{subsubsection.3.2.2.82}}
\newlabel{structstr_parameters_s_c_c_acf495c2337f65aa34628a596ceea4a76}{{3.2.2.82}{17}{PhTrdLT\relax }{subsubsection.3.2.2.82}{}}
\@writefile{toc}{\contentsline {subsubsection}{\numberline {3.2.2.83}pumpBaccDevi}{17}{subsubsection.3.2.2.83}}
\newlabel{structstr_parameters_s_c_c_a0e3701eb73eec81273b731c96b6c451e}{{3.2.2.83}{17}{pumpBaccDevi\relax }{subsubsection.3.2.2.83}{}}
\@writefile{toc}{\contentsline {subsubsection}{\numberline {3.2.2.84}pumpFaccDevi}{17}{subsubsection.3.2.2.84}}
\newlabel{structstr_parameters_s_c_c_ab3be0ebce5d04794ebe9e7360efee108}{{3.2.2.84}{17}{pumpFaccDevi\relax }{subsubsection.3.2.2.84}{}}
\@writefile{toc}{\contentsline {subsubsection}{\numberline {3.2.2.85}SCAP\_\discretionary {-}{}{}K}{17}{subsubsection.3.2.2.85}}
\newlabel{structstr_parameters_s_c_c_a91e4baa22bcbef6aa07f2949e6416b2b}{{3.2.2.85}{17}{SCAP\_\-K\relax }{subsubsection.3.2.2.85}{}}
\@writefile{toc}{\contentsline {subsubsection}{\numberline {3.2.2.86}SCAP\_\discretionary {-}{}{}Ph}{17}{subsubsection.3.2.2.86}}
\newlabel{structstr_parameters_s_c_c_ae4569ae38db9987b150be7bfeaeb1592}{{3.2.2.86}{17}{SCAP\_\-Ph\relax }{subsubsection.3.2.2.86}{}}
\@writefile{toc}{\contentsline {subsubsection}{\numberline {3.2.2.87}UreaAAbsH}{17}{subsubsection.3.2.2.87}}
\newlabel{structstr_parameters_s_c_c_aa98e58cbe7cada2d3564c34b621378d6}{{3.2.2.87}{17}{UreaAAbsH\relax }{subsubsection.3.2.2.87}{}}
\@writefile{toc}{\contentsline {subsubsection}{\numberline {3.2.2.88}UreaTrdHPsT}{17}{subsubsection.3.2.2.88}}
\newlabel{structstr_parameters_s_c_c_a5956d3864f75b12506cb9976bb1ea2e2}{{3.2.2.88}{17}{UreaTrdHPsT\relax }{subsubsection.3.2.2.88}{}}
\@writefile{toc}{\contentsline {subsubsection}{\numberline {3.2.2.89}UreaTrdHT}{17}{subsubsection.3.2.2.89}}
\newlabel{structstr_parameters_s_c_c_a1b6bd721783818c5cec7733a79f52f14}{{3.2.2.89}{17}{UreaTrdHT\relax }{subsubsection.3.2.2.89}{}}
\@writefile{toc}{\contentsline {subsubsection}{\numberline {3.2.2.90}VertDeflecitonT}{17}{subsubsection.3.2.2.90}}
\newlabel{structstr_parameters_s_c_c_ad330688455881e1d54ffc25231ad13a7}{{3.2.2.90}{17}{VertDeflecitonT\relax }{subsubsection.3.2.2.90}{}}
\@writefile{toc}{\contentsline {subsubsection}{\numberline {3.2.2.91}WghtAbsH}{17}{subsubsection.3.2.2.91}}
\newlabel{structstr_parameters_s_c_c_a00b57339c49ffa8498c4a0565cca8107}{{3.2.2.91}{17}{WghtAbsH\relax }{subsubsection.3.2.2.91}{}}
\@writefile{toc}{\contentsline {subsubsection}{\numberline {3.2.2.92}WghtAbsL}{18}{subsubsection.3.2.2.92}}
\newlabel{structstr_parameters_s_c_c_a9105b42508c0a9c78f416c4ae1b403be}{{3.2.2.92}{18}{WghtAbsL\relax }{subsubsection.3.2.2.92}{}}
\@writefile{toc}{\contentsline {subsubsection}{\numberline {3.2.2.93}WghtTrdT}{18}{subsubsection.3.2.2.93}}
\newlabel{structstr_parameters_s_c_c_a150d0b7dbe3166be3ce297d2d8ee1037}{{3.2.2.93}{18}{WghtTrdT\relax }{subsubsection.3.2.2.93}{}}
\@writefile{toc}{\contentsline {subsubsection}{\numberline {3.2.2.94}wgtCa}{18}{subsubsection.3.2.2.94}}
\newlabel{structstr_parameters_s_c_c_aca86b35132a468fcc7401f75d4410d33}{{3.2.2.94}{18}{wgtCa\relax }{subsubsection.3.2.2.94}{}}
\@writefile{toc}{\contentsline {subsubsection}{\numberline {3.2.2.95}wgtCrea}{18}{subsubsection.3.2.2.95}}
\newlabel{structstr_parameters_s_c_c_a886dd6a259c14c3459d927445315bbc9}{{3.2.2.95}{18}{wgtCrea\relax }{subsubsection.3.2.2.95}{}}
\@writefile{toc}{\contentsline {subsubsection}{\numberline {3.2.2.96}wgtHCO3}{18}{subsubsection.3.2.2.96}}
\newlabel{structstr_parameters_s_c_c_a858a8f59e6c6f7e779ebeeafe841e3ae}{{3.2.2.96}{18}{wgtHCO3\relax }{subsubsection.3.2.2.96}{}}
\@writefile{toc}{\contentsline {subsubsection}{\numberline {3.2.2.97}wgtK}{18}{subsubsection.3.2.2.97}}
\newlabel{structstr_parameters_s_c_c_a70bdbec06b238a72ddd6d0eafa3c6960}{{3.2.2.97}{18}{wgtK\relax }{subsubsection.3.2.2.97}{}}
\@writefile{toc}{\contentsline {subsubsection}{\numberline {3.2.2.98}wgtNa}{18}{subsubsection.3.2.2.98}}
\newlabel{structstr_parameters_s_c_c_a41f56f2f51e7da3076cb9102654aa111}{{3.2.2.98}{18}{wgtNa\relax }{subsubsection.3.2.2.98}{}}
\@writefile{toc}{\contentsline {subsubsection}{\numberline {3.2.2.99}wgtPhos}{18}{subsubsection.3.2.2.99}}
\newlabel{structstr_parameters_s_c_c_a6a018eb3525c9b6411c9fba8dd7e417d}{{3.2.2.99}{18}{wgtPhos\relax }{subsubsection.3.2.2.99}{}}
\@writefile{toc}{\contentsline {subsubsection}{\numberline {3.2.2.100}wgtUr}{18}{subsubsection.3.2.2.100}}
\newlabel{structstr_parameters_s_c_c_a444bb77f2b3f6ddb3dc972946037a531}{{3.2.2.100}{18}{wgtUr\relax }{subsubsection.3.2.2.100}{}}
\@writefile{toc}{\contentsline {section}{\numberline {3.3}strPhysicalSensorReadout Struct Reference}{18}{section.3.3}}
\newlabel{structstr_physical_sensor_readout}{{3.3}{18}{strPhysicalSensorReadout Struct Reference\relax }{section.3.3}{}}
\@writefile{toc}{\contentsline {subsection}{\numberline {3.3.1}Detailed Description}{19}{subsection.3.3.1}}
\@writefile{toc}{\contentsline {subsection}{\numberline {3.3.2}Field Documentation}{19}{subsection.3.3.2}}
\@writefile{toc}{\contentsline {subsubsection}{\numberline {3.3.2.1}babdStatusBubble}{19}{subsubsection.3.3.2.1}}
\newlabel{structstr_physical_sensor_readout_a09a77bc8058044d13a718398f30fee5a}{{3.3.2.1}{19}{babdStatusBubble\relax }{subsubsection.3.3.2.1}{}}
\@writefile{toc}{\contentsline {subsubsection}{\numberline {3.3.2.2}bpsiBloodPressure}{19}{subsubsection.3.3.2.2}}
\newlabel{structstr_physical_sensor_readout_a87e802836fb222598d02b7124b76df21}{{3.3.2.2}{19}{bpsiBloodPressure\relax }{subsubsection.3.3.2.2}{}}
\@writefile{toc}{\contentsline {subsubsection}{\numberline {3.3.2.3}bpsoBloodPressure}{19}{subsubsection.3.3.2.3}}
\newlabel{structstr_physical_sensor_readout_a47e0f8767fcc71748e24c972737891a4}{{3.3.2.3}{19}{bpsoBloodPressure\relax }{subsubsection.3.3.2.3}{}}
\@writefile{toc}{\contentsline {subsubsection}{\numberline {3.3.2.4}dcsConductFcq}{19}{subsubsection.3.3.2.4}}
\newlabel{structstr_physical_sensor_readout_a2e4114e19cbdc739f0f294cbfc1c8665}{{3.3.2.4}{19}{dcsConductFcq\relax }{subsubsection.3.3.2.4}{}}
\@writefile{toc}{\contentsline {subsubsection}{\numberline {3.3.2.5}dcsConductFcr}{20}{subsubsection.3.3.2.5}}
\newlabel{structstr_physical_sensor_readout_a65beecc7b9f102793b1cebe7a40b48de}{{3.3.2.5}{20}{dcsConductFcr\relax }{subsubsection.3.3.2.5}{}}
\@writefile{toc}{\contentsline {subsubsection}{\numberline {3.3.2.6}flowBlood}{20}{subsubsection.3.3.2.6}}
\newlabel{structstr_physical_sensor_readout_a58b966e9e6fd07fd3c1bc2e4a817d74c}{{3.3.2.6}{20}{flowBlood\relax }{subsubsection.3.3.2.6}{}}
\@writefile{toc}{\contentsline {subsubsection}{\numberline {3.3.2.7}flowFluidic}{20}{subsubsection.3.3.2.7}}
\newlabel{structstr_physical_sensor_readout_a3eda5ea8557538fba71a6101e55c7b4a}{{3.3.2.7}{20}{flowFluidic\relax }{subsubsection.3.3.2.7}{}}
\@writefile{toc}{\contentsline {subsubsection}{\numberline {3.3.2.8}fpsiFluidicPressure}{20}{subsubsection.3.3.2.8}}
\newlabel{structstr_physical_sensor_readout_a3392fffd22d846f52f2baec1b10e9ff8}{{3.3.2.8}{20}{fpsiFluidicPressure\relax }{subsubsection.3.3.2.8}{}}
\@writefile{toc}{\contentsline {subsubsection}{\numberline {3.3.2.9}fpsoFluidicPressure}{20}{subsubsection.3.3.2.9}}
\newlabel{structstr_physical_sensor_readout_a005c38b5467c0801f1172b443f6d09c8}{{3.3.2.9}{20}{fpsoFluidicPressure\relax }{subsubsection.3.3.2.9}{}}
\@writefile{toc}{\contentsline {subsubsection}{\numberline {3.3.2.10}mfsiStatusSwitch}{20}{subsubsection.3.3.2.10}}
\newlabel{structstr_physical_sensor_readout_a21686b135d7ab20469ce0c91ee03e9dc}{{3.3.2.10}{20}{mfsiStatusSwitch\relax }{subsubsection.3.3.2.10}{}}
\@writefile{toc}{\contentsline {subsubsection}{\numberline {3.3.2.11}mfsoStatusSwitch}{20}{subsubsection.3.3.2.11}}
\newlabel{structstr_physical_sensor_readout_aa665ba631f4880783f2cd46522c4236a}{{3.3.2.11}{20}{mfsoStatusSwitch\relax }{subsubsection.3.3.2.11}{}}
\@writefile{toc}{\contentsline {subsubsection}{\numberline {3.3.2.12}pumpSpeedBlood}{20}{subsubsection.3.3.2.12}}
\newlabel{structstr_physical_sensor_readout_a1dcc2909c861c91fa7b58ede0051b2f2}{{3.3.2.12}{20}{pumpSpeedBlood\relax }{subsubsection.3.3.2.12}{}}
\@writefile{toc}{\contentsline {subsubsection}{\numberline {3.3.2.13}pumpSpeedFluidic}{20}{subsubsection.3.3.2.13}}
\newlabel{structstr_physical_sensor_readout_ad8252310974fa4baba3fc4c6b2014401}{{3.3.2.13}{20}{pumpSpeedFluidic\relax }{subsubsection.3.3.2.13}{}}
\@writefile{toc}{\contentsline {subsubsection}{\numberline {3.3.2.14}statusBloodLeakage}{20}{subsubsection.3.3.2.14}}
\newlabel{structstr_physical_sensor_readout_a7aabffa1eef9895809d6e8d7b14ae2f8}{{3.3.2.14}{20}{statusBloodLeakage\relax }{subsubsection.3.3.2.14}{}}
\@writefile{toc}{\contentsline {subsubsection}{\numberline {3.3.2.15}statusEcpi}{21}{subsubsection.3.3.2.15}}
\newlabel{structstr_physical_sensor_readout_aebb852b3eccb620d2874e37dba18ce7e}{{3.3.2.15}{21}{statusEcpi\relax }{subsubsection.3.3.2.15}{}}
\@writefile{toc}{\contentsline {subsubsection}{\numberline {3.3.2.16}statusEcpo}{21}{subsubsection.3.3.2.16}}
\newlabel{structstr_physical_sensor_readout_a1904046eab43eba1074328eaa21e1464}{{3.3.2.16}{21}{statusEcpo\relax }{subsubsection.3.3.2.16}{}}
\@writefile{toc}{\contentsline {subsubsection}{\numberline {3.3.2.17}statusFluidicLeakage}{21}{subsubsection.3.3.2.17}}
\newlabel{structstr_physical_sensor_readout_a4d525de090a39de00b1e9c2636d46d1f}{{3.3.2.17}{21}{statusFluidicLeakage\relax }{subsubsection.3.3.2.17}{}}
\@writefile{toc}{\contentsline {subsubsection}{\numberline {3.3.2.18}statusPolarization}{21}{subsubsection.3.3.2.18}}
\newlabel{structstr_physical_sensor_readout_a43057db68e96e4e00d1f9f9e834e77d4}{{3.3.2.18}{21}{statusPolarization\relax }{subsubsection.3.3.2.18}{}}
\@writefile{toc}{\contentsline {subsubsection}{\numberline {3.3.2.19}timestamp}{21}{subsubsection.3.3.2.19}}
\newlabel{structstr_physical_sensor_readout_a189788e3f019a8b35aaef77b119a38b8}{{3.3.2.19}{21}{timestamp\relax }{subsubsection.3.3.2.19}{}}
\@writefile{toc}{\contentsline {section}{\numberline {3.4}strPhysiologicalSensorReadout Struct Reference}{21}{section.3.4}}
\newlabel{structstr_physiological_sensor_readout}{{3.4}{21}{strPhysiologicalSensorReadout Struct Reference\relax }{section.3.4}{}}
\@writefile{toc}{\contentsline {subsection}{\numberline {3.4.1}Detailed Description}{22}{subsection.3.4.1}}
\@writefile{toc}{\contentsline {subsection}{\numberline {3.4.2}Field Documentation}{22}{subsection.3.4.2}}
\@writefile{toc}{\contentsline {subsubsection}{\numberline {3.4.2.1}btsiTemperature}{22}{subsubsection.3.4.2.1}}
\newlabel{structstr_physiological_sensor_readout_a22a240ff1d1d141e091ac5c034d48628}{{3.4.2.1}{22}{btsiTemperature\relax }{subsubsection.3.4.2.1}{}}
\@writefile{toc}{\contentsline {subsubsection}{\numberline {3.4.2.2}btsoTemperature}{22}{subsubsection.3.4.2.2}}
\newlabel{structstr_physiological_sensor_readout_aad6d6da8ddb627c8154ca6f7c273a781}{{3.4.2.2}{22}{btsoTemperature\relax }{subsubsection.3.4.2.2}{}}
\@writefile{toc}{\contentsline {subsubsection}{\numberline {3.4.2.3}ecpiC4H9N3O2}{22}{subsubsection.3.4.2.3}}
\newlabel{structstr_physiological_sensor_readout_aa75d8998e8bf73a241f92bb9a0655916}{{3.4.2.3}{22}{ecpiC4H9N3O2\relax }{subsubsection.3.4.2.3}{}}
\@writefile{toc}{\contentsline {subsubsection}{\numberline {3.4.2.4}ecpiCa}{22}{subsubsection.3.4.2.4}}
\newlabel{structstr_physiological_sensor_readout_a2d45aa9da7b2f3b859b4f2c83dc3923f}{{3.4.2.4}{22}{ecpiCa\relax }{subsubsection.3.4.2.4}{}}
\@writefile{toc}{\contentsline {subsubsection}{\numberline {3.4.2.5}ecpiH2PO4}{22}{subsubsection.3.4.2.5}}
\newlabel{structstr_physiological_sensor_readout_aa5a198c45673cf52b759bd4382495eb6}{{3.4.2.5}{22}{ecpiH2PO4\relax }{subsubsection.3.4.2.5}{}}
\@writefile{toc}{\contentsline {subsubsection}{\numberline {3.4.2.6}ecpiHCO3}{22}{subsubsection.3.4.2.6}}
\newlabel{structstr_physiological_sensor_readout_a971d2de0202661647a7bcb9d39cf16c6}{{3.4.2.6}{22}{ecpiHCO3\relax }{subsubsection.3.4.2.6}{}}
\@writefile{toc}{\contentsline {subsubsection}{\numberline {3.4.2.7}ecpiK}{23}{subsubsection.3.4.2.7}}
\newlabel{structstr_physiological_sensor_readout_a67f1c33a4b7d7c8632145932c1887827}{{3.4.2.7}{23}{ecpiK\relax }{subsubsection.3.4.2.7}{}}
\@writefile{toc}{\contentsline {subsubsection}{\numberline {3.4.2.8}ecpiMg}{23}{subsubsection.3.4.2.8}}
\newlabel{structstr_physiological_sensor_readout_a42ffd9dc2e09f77fec34473bb1154173}{{3.4.2.8}{23}{ecpiMg\relax }{subsubsection.3.4.2.8}{}}
\@writefile{toc}{\contentsline {subsubsection}{\numberline {3.4.2.9}ecpiNa}{23}{subsubsection.3.4.2.9}}
\newlabel{structstr_physiological_sensor_readout_abc8ee775ece56139dbc6e90c98c23589}{{3.4.2.9}{23}{ecpiNa\relax }{subsubsection.3.4.2.9}{}}
\@writefile{toc}{\contentsline {subsubsection}{\numberline {3.4.2.10}ecpiPH}{23}{subsubsection.3.4.2.10}}
\newlabel{structstr_physiological_sensor_readout_a23f686df59a1fa16c2aa9b142ddfdd26}{{3.4.2.10}{23}{ecpiPH\relax }{subsubsection.3.4.2.10}{}}
\@writefile{toc}{\contentsline {subsubsection}{\numberline {3.4.2.11}ecpiTemperature}{23}{subsubsection.3.4.2.11}}
\newlabel{structstr_physiological_sensor_readout_abba76da739e4154fc0c8b6c84688d5b9}{{3.4.2.11}{23}{ecpiTemperature\relax }{subsubsection.3.4.2.11}{}}
\@writefile{toc}{\contentsline {subsubsection}{\numberline {3.4.2.12}ecpiUrea}{23}{subsubsection.3.4.2.12}}
\newlabel{structstr_physiological_sensor_readout_af60a531bbb809e56ddafcb33631a1cb4}{{3.4.2.12}{23}{ecpiUrea\relax }{subsubsection.3.4.2.12}{}}
\@writefile{toc}{\contentsline {subsubsection}{\numberline {3.4.2.13}ecpoC4H9N3O2}{23}{subsubsection.3.4.2.13}}
\newlabel{structstr_physiological_sensor_readout_ae93d30bfe303b4d386a3e5bb584b8f62}{{3.4.2.13}{23}{ecpoC4H9N3O2\relax }{subsubsection.3.4.2.13}{}}
\@writefile{toc}{\contentsline {subsubsection}{\numberline {3.4.2.14}ecpoCa}{23}{subsubsection.3.4.2.14}}
\newlabel{structstr_physiological_sensor_readout_ac83396e90afbbd75b153c1ee7010fc84}{{3.4.2.14}{23}{ecpoCa\relax }{subsubsection.3.4.2.14}{}}
\@writefile{toc}{\contentsline {subsubsection}{\numberline {3.4.2.15}ecpoH2PO4}{23}{subsubsection.3.4.2.15}}
\newlabel{structstr_physiological_sensor_readout_a209364e8b547b6c874a9a74880a0f614}{{3.4.2.15}{23}{ecpoH2PO4\relax }{subsubsection.3.4.2.15}{}}
\@writefile{toc}{\contentsline {subsubsection}{\numberline {3.4.2.16}ecpoHCO3}{23}{subsubsection.3.4.2.16}}
\newlabel{structstr_physiological_sensor_readout_a168e20f5cd8574836847a54dc6a83a40}{{3.4.2.16}{23}{ecpoHCO3\relax }{subsubsection.3.4.2.16}{}}
\@writefile{toc}{\contentsline {subsubsection}{\numberline {3.4.2.17}ecpoK}{24}{subsubsection.3.4.2.17}}
\newlabel{structstr_physiological_sensor_readout_ac1e731d465449117263d47b41d3834fe}{{3.4.2.17}{24}{ecpoK\relax }{subsubsection.3.4.2.17}{}}
\@writefile{toc}{\contentsline {subsubsection}{\numberline {3.4.2.18}ecpoMg}{24}{subsubsection.3.4.2.18}}
\newlabel{structstr_physiological_sensor_readout_ae8ef3858152baa54e0f197cb18b0b059}{{3.4.2.18}{24}{ecpoMg\relax }{subsubsection.3.4.2.18}{}}
\@writefile{toc}{\contentsline {subsubsection}{\numberline {3.4.2.19}ecpoNa}{24}{subsubsection.3.4.2.19}}
\newlabel{structstr_physiological_sensor_readout_a569ef66ef017a9e53a10b766116dc630}{{3.4.2.19}{24}{ecpoNa\relax }{subsubsection.3.4.2.19}{}}
\@writefile{toc}{\contentsline {subsubsection}{\numberline {3.4.2.20}ecpoPH}{24}{subsubsection.3.4.2.20}}
\newlabel{structstr_physiological_sensor_readout_a591edf73e0779129eb21336f84e006da}{{3.4.2.20}{24}{ecpoPH\relax }{subsubsection.3.4.2.20}{}}
\@writefile{toc}{\contentsline {subsubsection}{\numberline {3.4.2.21}ecpoTemperature}{24}{subsubsection.3.4.2.21}}
\newlabel{structstr_physiological_sensor_readout_a6e14b794b6a6cd9a5f5bfe95cb746eae}{{3.4.2.21}{24}{ecpoTemperature\relax }{subsubsection.3.4.2.21}{}}
\@writefile{toc}{\contentsline {subsubsection}{\numberline {3.4.2.22}ecpoUrea}{24}{subsubsection.3.4.2.22}}
\newlabel{structstr_physiological_sensor_readout_a5b6e9658fb5ae6387175963c46d2d670}{{3.4.2.22}{24}{ecpoUrea\relax }{subsubsection.3.4.2.22}{}}
\@writefile{toc}{\contentsline {subsubsection}{\numberline {3.4.2.23}timestamp}{24}{subsubsection.3.4.2.23}}
\newlabel{structstr_physiological_sensor_readout_a189788e3f019a8b35aaef77b119a38b8}{{3.4.2.23}{24}{timestamp\relax }{subsubsection.3.4.2.23}{}}
\gdef \LT@i {\LT@entry 
    {1}{59.44409pt}\LT@entry 
    {1}{307.44452pt}}
\@writefile{toc}{\contentsline {chapter}{\numberline {4}File Documentation}{25}{chapter.4}}
\@writefile{lof}{\addvspace {10\p@ }}
\@writefile{lot}{\addvspace {10\p@ }}
\@writefile{toc}{\contentsline {section}{\numberline {4.1}crc16.c File Reference}{25}{section.4.1}}
\newlabel{crc16_8c}{{4.1}{25}{crc16.c File Reference\relax }{section.4.1}{}}
\@writefile{toc}{\contentsline {subsection}{\numberline {4.1.1}Detailed Description}{25}{subsection.4.1.1}}
\@writefile{toc}{\contentsline {subsection}{\numberline {4.1.2}Function Documentation}{25}{subsection.4.1.2}}
\@writefile{toc}{\contentsline {subsubsection}{\numberline {4.1.2.1}crc\_\discretionary {-}{}{}reflect}{25}{subsubsection.4.1.2.1}}
\newlabel{crc16_8c_a8297fe3548272bfd13055cd06019d209}{{4.1.2.1}{25}{crc\_\-reflect\relax }{subsubsection.4.1.2.1}{}}
\gdef \LT@ii {\LT@entry 
    {1}{59.44409pt}\LT@entry 
    {1}{307.44452pt}}
\@writefile{toc}{\contentsline {subsubsection}{\numberline {4.1.2.2}crc\_\discretionary {-}{}{}update}{26}{subsubsection.4.1.2.2}}
\newlabel{crc16_8c_aba3004f7172c305e29d7fccbbd1592ab}{{4.1.2.2}{26}{crc\_\-update\relax }{subsubsection.4.1.2.2}{}}
\@writefile{toc}{\contentsline {section}{\numberline {4.2}crc16.h File Reference}{26}{section.4.2}}
\newlabel{crc16_8h}{{4.2}{26}{crc16.h File Reference\relax }{section.4.2}{}}
\@writefile{toc}{\contentsline {subsection}{\numberline {4.2.1}Detailed Description}{26}{subsection.4.2.1}}
\gdef \LT@iii {\LT@entry 
    {1}{59.44409pt}\LT@entry 
    {1}{307.44452pt}}
\@writefile{toc}{\contentsline {subsection}{\numberline {4.2.2}Define Documentation}{27}{subsection.4.2.2}}
\@writefile{toc}{\contentsline {subsubsection}{\numberline {4.2.2.1}CRC\_\discretionary {-}{}{}ALGO\_\discretionary {-}{}{}TABLE\_\discretionary {-}{}{}DRIVEN}{27}{subsubsection.4.2.2.1}}
\newlabel{crc16_8h_acdc2d3a1020afb271c12a747a03935a2}{{4.2.2.1}{27}{CRC\_\-ALGO\_\-TABLE\_\-DRIVEN\relax }{subsubsection.4.2.2.1}{}}
\@writefile{toc}{\contentsline {subsubsection}{\numberline {4.2.2.2}taskMessage}{27}{subsubsection.4.2.2.2}}
\newlabel{crc16_8h_ad5887c6de27b0bf13acd2f8fed9ce429}{{4.2.2.2}{27}{taskMessage\relax }{subsubsection.4.2.2.2}{}}
\@writefile{toc}{\contentsline {subsection}{\numberline {4.2.3}Typedef Documentation}{27}{subsection.4.2.3}}
\@writefile{toc}{\contentsline {subsubsection}{\numberline {4.2.3.1}crc\_\discretionary {-}{}{}t}{27}{subsubsection.4.2.3.1}}
\newlabel{crc16_8h_a6b6c21dae2994d1cc6afc120b32719bf}{{4.2.3.1}{27}{crc\_\-t\relax }{subsubsection.4.2.3.1}{}}
\@writefile{toc}{\contentsline {subsection}{\numberline {4.2.4}Function Documentation}{27}{subsection.4.2.4}}
\@writefile{toc}{\contentsline {subsubsection}{\numberline {4.2.4.1}crc\_\discretionary {-}{}{}reflect}{27}{subsubsection.4.2.4.1}}
\newlabel{crc16_8h_a8297fe3548272bfd13055cd06019d209}{{4.2.4.1}{27}{crc\_\-reflect\relax }{subsubsection.4.2.4.1}{}}
\@writefile{toc}{\contentsline {subsubsection}{\numberline {4.2.4.2}crc\_\discretionary {-}{}{}update}{27}{subsubsection.4.2.4.2}}
\newlabel{crc16_8h_aba3004f7172c305e29d7fccbbd1592ab}{{4.2.4.2}{27}{crc\_\-update\relax }{subsubsection.4.2.4.2}{}}
\gdef \LT@iv {\LT@entry 
    {1}{59.44409pt}\LT@entry 
    {1}{307.44452pt}}
\@writefile{toc}{\contentsline {section}{\numberline {4.3}csvparselib.c File Reference}{28}{section.4.3}}
\newlabel{csvparselib_8c}{{4.3}{28}{csvparselib.c File Reference\relax }{section.4.3}{}}
\@writefile{toc}{\contentsline {subsection}{\numberline {4.3.1}Define Documentation}{29}{subsection.4.3.1}}
\@writefile{toc}{\contentsline {subsubsection}{\numberline {4.3.1.1}PREFIX}{29}{subsubsection.4.3.1.1}}
\newlabel{csvparselib_8c_add51b53e8b628f95078327028dccb20c}{{4.3.1.1}{29}{PREFIX\relax }{subsubsection.4.3.1.1}{}}
\@writefile{toc}{\contentsline {subsubsection}{\numberline {4.3.1.2}SELECT\_\discretionary {-}{}{}NOT\_\discretionary {-}{}{}FLT}{29}{subsubsection.4.3.1.2}}
\newlabel{csvparselib_8c_a6e9874ab98b458bb304a69394a1f4fbd}{{4.3.1.2}{29}{SELECT\_\-NOT\_\-FLT\relax }{subsubsection.4.3.1.2}{}}
\@writefile{toc}{\contentsline {subsubsection}{\numberline {4.3.1.3}SELECT\_\discretionary {-}{}{}NOT\_\discretionary {-}{}{}INT}{29}{subsubsection.4.3.1.3}}
\newlabel{csvparselib_8c_a97dc8976814d947e43793bc906a99273}{{4.3.1.3}{29}{SELECT\_\-NOT\_\-INT\relax }{subsubsection.4.3.1.3}{}}
\@writefile{toc}{\contentsline {subsubsection}{\numberline {4.3.1.4}taskMessage}{29}{subsubsection.4.3.1.4}}
\newlabel{csvparselib_8c_ad5887c6de27b0bf13acd2f8fed9ce429}{{4.3.1.4}{29}{taskMessage\relax }{subsubsection.4.3.1.4}{}}
\@writefile{toc}{\contentsline {subsubsection}{\numberline {4.3.1.5}VALUE\_\discretionary {-}{}{}MAX\_\discretionary {-}{}{}CHARS}{29}{subsubsection.4.3.1.5}}
\newlabel{csvparselib_8c_a6be3c0d69a6b3e1f5753ce7e3c5741a8}{{4.3.1.5}{29}{VALUE\_\-MAX\_\-CHARS\relax }{subsubsection.4.3.1.5}{}}
\gdef \LT@v {\LT@entry 
    {1}{59.44409pt}\LT@entry 
    {1}{307.44452pt}}
\gdef \LT@vi {\LT@entry 
    {1}{59.44409pt}\LT@entry 
    {1}{307.44452pt}}
\gdef \LT@vii {\LT@entry 
    {1}{59.44409pt}\LT@entry 
    {1}{307.44452pt}}
\@writefile{toc}{\contentsline {subsection}{\numberline {4.3.2}Function Documentation}{30}{subsection.4.3.2}}
\@writefile{toc}{\contentsline {subsubsection}{\numberline {4.3.2.1}findCRC}{30}{subsubsection.4.3.2.1}}
\newlabel{csvparselib_8c_aa98225f43e208d181fc5a342c979edd3}{{4.3.2.1}{30}{findCRC\relax }{subsubsection.4.3.2.1}{}}
\@writefile{toc}{\contentsline {subsubsection}{\numberline {4.3.2.2}movebeforeCRLF}{30}{subsubsection.4.3.2.2}}
\newlabel{csvparselib_8c_a7468f0e60983255e99d65ab808d97e96}{{4.3.2.2}{30}{movebeforeCRLF\relax }{subsubsection.4.3.2.2}{}}
\@writefile{toc}{\contentsline {subsubsection}{\numberline {4.3.2.3}parseLine}{30}{subsubsection.4.3.2.3}}
\newlabel{csvparselib_8c_ad27334e70cd9e9792fa4d16124b0ec76}{{4.3.2.3}{30}{parseLine\relax }{subsubsection.4.3.2.3}{}}
\gdef \LT@viii {\LT@entry 
    {1}{59.44409pt}\LT@entry 
    {1}{307.44452pt}}
\gdef \LT@ix {\LT@entry 
    {1}{59.44409pt}\LT@entry 
    {1}{307.44452pt}}
\@writefile{toc}{\contentsline {subsubsection}{\numberline {4.3.2.4}parseLineFloat}{31}{subsubsection.4.3.2.4}}
\newlabel{csvparselib_8c_a728fb995ca882caef645eaf95ffc43aa}{{4.3.2.4}{31}{parseLineFloat\relax }{subsubsection.4.3.2.4}{}}
\@writefile{toc}{\contentsline {subsubsection}{\numberline {4.3.2.5}seekToLastLF}{31}{subsubsection.4.3.2.5}}
\newlabel{csvparselib_8c_a4b4abc3e5a0007520149d3abbc06741a}{{4.3.2.5}{31}{seekToLastLF\relax }{subsubsection.4.3.2.5}{}}
\@writefile{toc}{\contentsline {subsubsection}{\numberline {4.3.2.6}strnlen}{31}{subsubsection.4.3.2.6}}
\newlabel{csvparselib_8c_a0532522a5f8d92fbd701e2109ac30509}{{4.3.2.6}{31}{strnlen\relax }{subsubsection.4.3.2.6}{}}
\gdef \LT@x {\LT@entry 
    {1}{59.44409pt}\LT@entry 
    {1}{307.44452pt}}
\gdef \LT@xi {\LT@entry 
    {1}{59.44409pt}\LT@entry 
    {1}{307.44452pt}}
\@writefile{toc}{\contentsline {subsubsection}{\numberline {4.3.2.7}verifyCRC}{32}{subsubsection.4.3.2.7}}
\newlabel{csvparselib_8c_ae3bf4cb19cbc91f85615b46013e964a0}{{4.3.2.7}{32}{verifyCRC\relax }{subsubsection.4.3.2.7}{}}
\@writefile{toc}{\contentsline {subsubsection}{\numberline {4.3.2.8}writeCRC}{32}{subsubsection.4.3.2.8}}
\newlabel{csvparselib_8c_abf29aa7110097760241d9fc9382b0707}{{4.3.2.8}{32}{writeCRC\relax }{subsubsection.4.3.2.8}{}}
\@writefile{toc}{\contentsline {subsubsection}{\numberline {4.3.2.9}writeFloat}{32}{subsubsection.4.3.2.9}}
\newlabel{csvparselib_8c_a35f84124469d1d199e0e181f8c7ea780}{{4.3.2.9}{32}{writeFloat\relax }{subsubsection.4.3.2.9}{}}
\gdef \LT@xii {\LT@entry 
    {1}{59.44409pt}\LT@entry 
    {1}{307.44452pt}}
\@writefile{toc}{\contentsline {section}{\numberline {4.4}csvparselib.h File Reference}{33}{section.4.4}}
\newlabel{csvparselib_8h}{{4.4}{33}{csvparselib.h File Reference\relax }{section.4.4}{}}
\gdef \LT@xiii {\LT@entry 
    {1}{59.44409pt}\LT@entry 
    {1}{307.44452pt}}
\@writefile{toc}{\contentsline {subsection}{\numberline {4.4.1}Define Documentation}{34}{subsection.4.4.1}}
\@writefile{toc}{\contentsline {subsubsection}{\numberline {4.4.1.1}taskMessage}{34}{subsubsection.4.4.1.1}}
\newlabel{csvparselib_8h_ad5887c6de27b0bf13acd2f8fed9ce429}{{4.4.1.1}{34}{taskMessage\relax }{subsubsection.4.4.1.1}{}}
\@writefile{toc}{\contentsline {subsection}{\numberline {4.4.2}Function Documentation}{34}{subsection.4.4.2}}
\@writefile{toc}{\contentsline {subsubsection}{\numberline {4.4.2.1}findCRC}{34}{subsubsection.4.4.2.1}}
\newlabel{csvparselib_8h_aa98225f43e208d181fc5a342c979edd3}{{4.4.2.1}{34}{findCRC\relax }{subsubsection.4.4.2.1}{}}
\gdef \LT@xiv {\LT@entry 
    {1}{59.44409pt}\LT@entry 
    {1}{307.44452pt}}
\gdef \LT@xv {\LT@entry 
    {1}{59.44409pt}\LT@entry 
    {1}{307.44452pt}}
\gdef \LT@xvi {\LT@entry 
    {1}{59.44409pt}\LT@entry 
    {1}{307.44452pt}}
\@writefile{toc}{\contentsline {subsubsection}{\numberline {4.4.2.2}movebeforeCRLF}{35}{subsubsection.4.4.2.2}}
\newlabel{csvparselib_8h_a7468f0e60983255e99d65ab808d97e96}{{4.4.2.2}{35}{movebeforeCRLF\relax }{subsubsection.4.4.2.2}{}}
\@writefile{toc}{\contentsline {subsubsection}{\numberline {4.4.2.3}parseLine}{35}{subsubsection.4.4.2.3}}
\newlabel{csvparselib_8h_ad27334e70cd9e9792fa4d16124b0ec76}{{4.4.2.3}{35}{parseLine\relax }{subsubsection.4.4.2.3}{}}
\@writefile{toc}{\contentsline {subsubsection}{\numberline {4.4.2.4}parseLineFloat}{35}{subsubsection.4.4.2.4}}
\newlabel{csvparselib_8h_a728fb995ca882caef645eaf95ffc43aa}{{4.4.2.4}{35}{parseLineFloat\relax }{subsubsection.4.4.2.4}{}}
\@writefile{toc}{\contentsline {subsubsection}{\numberline {4.4.2.5}seekToLastLF}{35}{subsubsection.4.4.2.5}}
\newlabel{csvparselib_8h_a4b4abc3e5a0007520149d3abbc06741a}{{4.4.2.5}{35}{seekToLastLF\relax }{subsubsection.4.4.2.5}{}}
\gdef \LT@xvii {\LT@entry 
    {1}{59.44409pt}\LT@entry 
    {1}{307.44452pt}}
\gdef \LT@xviii {\LT@entry 
    {1}{59.44409pt}\LT@entry 
    {1}{307.44452pt}}
\@writefile{toc}{\contentsline {subsubsection}{\numberline {4.4.2.6}strnlen}{36}{subsubsection.4.4.2.6}}
\newlabel{csvparselib_8h_a0532522a5f8d92fbd701e2109ac30509}{{4.4.2.6}{36}{strnlen\relax }{subsubsection.4.4.2.6}{}}
\@writefile{toc}{\contentsline {subsubsection}{\numberline {4.4.2.7}verifyCRC}{36}{subsubsection.4.4.2.7}}
\newlabel{csvparselib_8h_a2f2a461610bcd8c622b7083a8fbeab4a}{{4.4.2.7}{36}{verifyCRC\relax }{subsubsection.4.4.2.7}{}}
\@writefile{toc}{\contentsline {subsubsection}{\numberline {4.4.2.8}writeCRC}{36}{subsubsection.4.4.2.8}}
\newlabel{csvparselib_8h_abf29aa7110097760241d9fc9382b0707}{{4.4.2.8}{36}{writeCRC\relax }{subsubsection.4.4.2.8}{}}
\gdef \LT@xix {\LT@entry 
    {1}{59.44409pt}\LT@entry 
    {1}{307.44452pt}}
\gdef \LT@xx {\LT@entry 
    {1}{59.44409pt}\LT@entry 
    {1}{307.44452pt}}
\@writefile{toc}{\contentsline {subsubsection}{\numberline {4.4.2.9}writeFloat}{37}{subsubsection.4.4.2.9}}
\newlabel{csvparselib_8h_a35f84124469d1d199e0e181f8c7ea780}{{4.4.2.9}{37}{writeFloat\relax }{subsubsection.4.4.2.9}{}}
\@writefile{toc}{\contentsline {section}{\numberline {4.5}pstdint.h File Reference}{38}{section.4.5}}
\newlabel{pstdint_8h}{{4.5}{38}{pstdint.h File Reference\relax }{section.4.5}{}}
\@writefile{toc}{\contentsline {subsection}{\numberline {4.5.1}Define Documentation}{39}{subsection.4.5.1}}
\@writefile{toc}{\contentsline {subsubsection}{\numberline {4.5.1.1}\_\discretionary {-}{}{}PSTDINT\_\discretionary {-}{}{}H\_\discretionary {-}{}{}INCLUDED}{39}{subsubsection.4.5.1.1}}
\newlabel{pstdint_8h_a91cbfa927fe8e3fc657296bfe67849a6}{{4.5.1.1}{39}{\_\-PSTDINT\_\-H\_\-INCLUDED\relax }{subsubsection.4.5.1.1}{}}
\@writefile{toc}{\contentsline {subsubsection}{\numberline {4.5.1.2}INT16\_\discretionary {-}{}{}MAX}{39}{subsubsection.4.5.1.2}}
\newlabel{pstdint_8h_ac58f2c111cc9989c86db2a7dc4fd84ca}{{4.5.1.2}{39}{INT16\_\-MAX\relax }{subsubsection.4.5.1.2}{}}
\@writefile{toc}{\contentsline {subsubsection}{\numberline {4.5.1.3}INT16\_\discretionary {-}{}{}MIN}{39}{subsubsection.4.5.1.3}}
\newlabel{pstdint_8h_ad4e9955955b27624963643eac448118a}{{4.5.1.3}{39}{INT16\_\-MIN\relax }{subsubsection.4.5.1.3}{}}
\@writefile{toc}{\contentsline {subsubsection}{\numberline {4.5.1.4}INT32\_\discretionary {-}{}{}MAX}{40}{subsubsection.4.5.1.4}}
\newlabel{pstdint_8h_a181807730d4a375f848ba139813ce04f}{{4.5.1.4}{40}{INT32\_\-MAX\relax }{subsubsection.4.5.1.4}{}}
\@writefile{toc}{\contentsline {subsubsection}{\numberline {4.5.1.5}INT32\_\discretionary {-}{}{}MIN}{40}{subsubsection.4.5.1.5}}
\newlabel{pstdint_8h_a688eb21a22db27c2b2bd5836943cdcbe}{{4.5.1.5}{40}{INT32\_\-MIN\relax }{subsubsection.4.5.1.5}{}}
\@writefile{toc}{\contentsline {subsubsection}{\numberline {4.5.1.6}INT8\_\discretionary {-}{}{}MAX}{40}{subsubsection.4.5.1.6}}
\newlabel{pstdint_8h_aaf7f29f45f1a513b4748a4e5014ddf6a}{{4.5.1.6}{40}{INT8\_\-MAX\relax }{subsubsection.4.5.1.6}{}}
\@writefile{toc}{\contentsline {subsubsection}{\numberline {4.5.1.7}INT8\_\discretionary {-}{}{}MIN}{40}{subsubsection.4.5.1.7}}
\newlabel{pstdint_8h_aadcf2a81af243df333b31efa6461ab8e}{{4.5.1.7}{40}{INT8\_\-MIN\relax }{subsubsection.4.5.1.7}{}}
\@writefile{toc}{\contentsline {subsubsection}{\numberline {4.5.1.8}INT\_\discretionary {-}{}{}FAST16\_\discretionary {-}{}{}MAX}{40}{subsubsection.4.5.1.8}}
\newlabel{pstdint_8h_a2fd35d0ea091e04caec504ff0042cf00}{{4.5.1.8}{40}{INT\_\-FAST16\_\-MAX\relax }{subsubsection.4.5.1.8}{}}
\@writefile{toc}{\contentsline {subsubsection}{\numberline {4.5.1.9}INT\_\discretionary {-}{}{}FAST16\_\discretionary {-}{}{}MIN}{40}{subsubsection.4.5.1.9}}
\newlabel{pstdint_8h_a169460a4e2a79138723d68d99372d958}{{4.5.1.9}{40}{INT\_\-FAST16\_\-MIN\relax }{subsubsection.4.5.1.9}{}}
\@writefile{toc}{\contentsline {subsubsection}{\numberline {4.5.1.10}INT\_\discretionary {-}{}{}FAST32\_\discretionary {-}{}{}MAX}{40}{subsubsection.4.5.1.10}}
\newlabel{pstdint_8h_ac96fa0f41b19e89f109e4f9913ca6635}{{4.5.1.10}{40}{INT\_\-FAST32\_\-MAX\relax }{subsubsection.4.5.1.10}{}}
\@writefile{toc}{\contentsline {subsubsection}{\numberline {4.5.1.11}INT\_\discretionary {-}{}{}FAST32\_\discretionary {-}{}{}MIN}{40}{subsubsection.4.5.1.11}}
\newlabel{pstdint_8h_ad93df1652ed0635513d5efe4f1219926}{{4.5.1.11}{40}{INT\_\-FAST32\_\-MIN\relax }{subsubsection.4.5.1.11}{}}
\@writefile{toc}{\contentsline {subsubsection}{\numberline {4.5.1.12}INT\_\discretionary {-}{}{}FAST8\_\discretionary {-}{}{}MAX}{40}{subsubsection.4.5.1.12}}
\newlabel{pstdint_8h_acbcdb3bee0f5f904da5df8de69a80ca3}{{4.5.1.12}{40}{INT\_\-FAST8\_\-MAX\relax }{subsubsection.4.5.1.12}{}}
\@writefile{toc}{\contentsline {subsubsection}{\numberline {4.5.1.13}INT\_\discretionary {-}{}{}FAST8\_\discretionary {-}{}{}MIN}{40}{subsubsection.4.5.1.13}}
\newlabel{pstdint_8h_aad8fb982cb19143efd5ee9a1a7a89390}{{4.5.1.13}{40}{INT\_\-FAST8\_\-MIN\relax }{subsubsection.4.5.1.13}{}}
\@writefile{toc}{\contentsline {subsubsection}{\numberline {4.5.1.14}INT\_\discretionary {-}{}{}LEAST16\_\discretionary {-}{}{}MAX}{41}{subsubsection.4.5.1.14}}
\newlabel{pstdint_8h_a7eb2a8e2a1c65d6c9ad0f86154890baa}{{4.5.1.14}{41}{INT\_\-LEAST16\_\-MAX\relax }{subsubsection.4.5.1.14}{}}
\@writefile{toc}{\contentsline {subsubsection}{\numberline {4.5.1.15}INT\_\discretionary {-}{}{}LEAST16\_\discretionary {-}{}{}MIN}{41}{subsubsection.4.5.1.15}}
\newlabel{pstdint_8h_a1f91bfd5820c2f27af3d260fc75813e1}{{4.5.1.15}{41}{INT\_\-LEAST16\_\-MIN\relax }{subsubsection.4.5.1.15}{}}
\@writefile{toc}{\contentsline {subsubsection}{\numberline {4.5.1.16}INT\_\discretionary {-}{}{}LEAST32\_\discretionary {-}{}{}MAX}{41}{subsubsection.4.5.1.16}}
\newlabel{pstdint_8h_a5618711a0a54f722190a3a1219e278c2}{{4.5.1.16}{41}{INT\_\-LEAST32\_\-MAX\relax }{subsubsection.4.5.1.16}{}}
\@writefile{toc}{\contentsline {subsubsection}{\numberline {4.5.1.17}INT\_\discretionary {-}{}{}LEAST32\_\discretionary {-}{}{}MIN}{41}{subsubsection.4.5.1.17}}
\newlabel{pstdint_8h_a2360a536116dd734820a6b5b3d560ce7}{{4.5.1.17}{41}{INT\_\-LEAST32\_\-MIN\relax }{subsubsection.4.5.1.17}{}}
\@writefile{toc}{\contentsline {subsubsection}{\numberline {4.5.1.18}INT\_\discretionary {-}{}{}LEAST8\_\discretionary {-}{}{}MAX}{41}{subsubsection.4.5.1.18}}
\newlabel{pstdint_8h_aa05109908fb2770f632d2b646b9f85bf}{{4.5.1.18}{41}{INT\_\-LEAST8\_\-MAX\relax }{subsubsection.4.5.1.18}{}}
\@writefile{toc}{\contentsline {subsubsection}{\numberline {4.5.1.19}INT\_\discretionary {-}{}{}LEAST8\_\discretionary {-}{}{}MIN}{41}{subsubsection.4.5.1.19}}
\newlabel{pstdint_8h_a3e986cad833f63f420962ff60eda87e5}{{4.5.1.19}{41}{INT\_\-LEAST8\_\-MIN\relax }{subsubsection.4.5.1.19}{}}
\@writefile{toc}{\contentsline {subsubsection}{\numberline {4.5.1.20}INTMAX\_\discretionary {-}{}{}C}{41}{subsubsection.4.5.1.20}}
\newlabel{pstdint_8h_a6b556b8b5f86e13f1c2a6e8f9b9b4966}{{4.5.1.20}{41}{INTMAX\_\-C\relax }{subsubsection.4.5.1.20}{}}
\@writefile{toc}{\contentsline {subsubsection}{\numberline {4.5.1.21}INTMAX\_\discretionary {-}{}{}MAX}{41}{subsubsection.4.5.1.21}}
\newlabel{pstdint_8h_a022b9b0a3564d786244a4631847c37a3}{{4.5.1.21}{41}{INTMAX\_\-MAX\relax }{subsubsection.4.5.1.21}{}}
\@writefile{toc}{\contentsline {subsubsection}{\numberline {4.5.1.22}PRINTF\_\discretionary {-}{}{}INT16\_\discretionary {-}{}{}DEC\_\discretionary {-}{}{}WIDTH}{41}{subsubsection.4.5.1.22}}
\newlabel{pstdint_8h_ac1bfd0b6e49224d67657fe9e7502623c}{{4.5.1.22}{41}{PRINTF\_\-INT16\_\-DEC\_\-WIDTH\relax }{subsubsection.4.5.1.22}{}}
\@writefile{toc}{\contentsline {subsubsection}{\numberline {4.5.1.23}PRINTF\_\discretionary {-}{}{}INT16\_\discretionary {-}{}{}HEX\_\discretionary {-}{}{}WIDTH}{41}{subsubsection.4.5.1.23}}
\newlabel{pstdint_8h_ab330e7280ae15049599408e99c73273b}{{4.5.1.23}{41}{PRINTF\_\-INT16\_\-HEX\_\-WIDTH\relax }{subsubsection.4.5.1.23}{}}
\@writefile{toc}{\contentsline {subsubsection}{\numberline {4.5.1.24}PRINTF\_\discretionary {-}{}{}INT32\_\discretionary {-}{}{}DEC\_\discretionary {-}{}{}WIDTH}{42}{subsubsection.4.5.1.24}}
\newlabel{pstdint_8h_aa7207fcbdc05d7cf877066028543c28b}{{4.5.1.24}{42}{PRINTF\_\-INT32\_\-DEC\_\-WIDTH\relax }{subsubsection.4.5.1.24}{}}
\@writefile{toc}{\contentsline {subsubsection}{\numberline {4.5.1.25}PRINTF\_\discretionary {-}{}{}INT32\_\discretionary {-}{}{}HEX\_\discretionary {-}{}{}WIDTH}{42}{subsubsection.4.5.1.25}}
\newlabel{pstdint_8h_ae6f04461e1801eefd3b64f3b851abed8}{{4.5.1.25}{42}{PRINTF\_\-INT32\_\-HEX\_\-WIDTH\relax }{subsubsection.4.5.1.25}{}}
\@writefile{toc}{\contentsline {subsubsection}{\numberline {4.5.1.26}PRINTF\_\discretionary {-}{}{}INT64\_\discretionary {-}{}{}DEC\_\discretionary {-}{}{}WIDTH}{42}{subsubsection.4.5.1.26}}
\newlabel{pstdint_8h_a9d70c86cd8202228d85db7aeed22497b}{{4.5.1.26}{42}{PRINTF\_\-INT64\_\-DEC\_\-WIDTH\relax }{subsubsection.4.5.1.26}{}}
\@writefile{toc}{\contentsline {subsubsection}{\numberline {4.5.1.27}PRINTF\_\discretionary {-}{}{}INT64\_\discretionary {-}{}{}HEX\_\discretionary {-}{}{}WIDTH}{42}{subsubsection.4.5.1.27}}
\newlabel{pstdint_8h_a6b45386978db7d05efc9c5ce140ba27c}{{4.5.1.27}{42}{PRINTF\_\-INT64\_\-HEX\_\-WIDTH\relax }{subsubsection.4.5.1.27}{}}
\@writefile{toc}{\contentsline {subsubsection}{\numberline {4.5.1.28}PRINTF\_\discretionary {-}{}{}INT8\_\discretionary {-}{}{}DEC\_\discretionary {-}{}{}WIDTH}{42}{subsubsection.4.5.1.28}}
\newlabel{pstdint_8h_a9b86583004a9dce380fe84b16de763b6}{{4.5.1.28}{42}{PRINTF\_\-INT8\_\-DEC\_\-WIDTH\relax }{subsubsection.4.5.1.28}{}}
\@writefile{toc}{\contentsline {subsubsection}{\numberline {4.5.1.29}PRINTF\_\discretionary {-}{}{}INT8\_\discretionary {-}{}{}HEX\_\discretionary {-}{}{}WIDTH}{42}{subsubsection.4.5.1.29}}
\newlabel{pstdint_8h_a32f0dce3fbd74aeeb4398ebc25abde7d}{{4.5.1.29}{42}{PRINTF\_\-INT8\_\-HEX\_\-WIDTH\relax }{subsubsection.4.5.1.29}{}}
\@writefile{toc}{\contentsline {subsubsection}{\numberline {4.5.1.30}PRINTF\_\discretionary {-}{}{}INTMAX\_\discretionary {-}{}{}DEC\_\discretionary {-}{}{}WIDTH}{42}{subsubsection.4.5.1.30}}
\newlabel{pstdint_8h_a9c269e817611c8344b5d13cdedbd4465}{{4.5.1.30}{42}{PRINTF\_\-INTMAX\_\-DEC\_\-WIDTH\relax }{subsubsection.4.5.1.30}{}}
\@writefile{toc}{\contentsline {subsubsection}{\numberline {4.5.1.31}PRINTF\_\discretionary {-}{}{}INTMAX\_\discretionary {-}{}{}HEX\_\discretionary {-}{}{}WIDTH}{42}{subsubsection.4.5.1.31}}
\newlabel{pstdint_8h_af88f43dbd7532680862099ef08421799}{{4.5.1.31}{42}{PRINTF\_\-INTMAX\_\-HEX\_\-WIDTH\relax }{subsubsection.4.5.1.31}{}}
\@writefile{toc}{\contentsline {subsubsection}{\numberline {4.5.1.32}PRINTF\_\discretionary {-}{}{}INTMAX\_\discretionary {-}{}{}MODIFIER}{42}{subsubsection.4.5.1.32}}
\newlabel{pstdint_8h_ad53dd320ab0f0e9f4266bc225a3487df}{{4.5.1.32}{42}{PRINTF\_\-INTMAX\_\-MODIFIER\relax }{subsubsection.4.5.1.32}{}}
\@writefile{toc}{\contentsline {subsubsection}{\numberline {4.5.1.33}PRINTF\_\discretionary {-}{}{}LEAST16\_\discretionary {-}{}{}MODIFIER}{42}{subsubsection.4.5.1.33}}
\newlabel{pstdint_8h_ae050ead9591f8e4e8368fe01076e7da4}{{4.5.1.33}{42}{PRINTF\_\-LEAST16\_\-MODIFIER\relax }{subsubsection.4.5.1.33}{}}
\@writefile{toc}{\contentsline {subsubsection}{\numberline {4.5.1.34}PRINTF\_\discretionary {-}{}{}LEAST32\_\discretionary {-}{}{}MODIFIER}{43}{subsubsection.4.5.1.34}}
\newlabel{pstdint_8h_a861aa5c171bcd4ac1438845bf9b183e1}{{4.5.1.34}{43}{PRINTF\_\-LEAST32\_\-MODIFIER\relax }{subsubsection.4.5.1.34}{}}
\@writefile{toc}{\contentsline {subsubsection}{\numberline {4.5.1.35}SIG\_\discretionary {-}{}{}ATOMIC\_\discretionary {-}{}{}MAX}{43}{subsubsection.4.5.1.35}}
\newlabel{pstdint_8h_a1f5fe9445d0ad0bee21bab1de4cc3e58}{{4.5.1.35}{43}{SIG\_\-ATOMIC\_\-MAX\relax }{subsubsection.4.5.1.35}{}}
\@writefile{toc}{\contentsline {subsubsection}{\numberline {4.5.1.36}SIZE\_\discretionary {-}{}{}MAX}{43}{subsubsection.4.5.1.36}}
\newlabel{pstdint_8h_a3c75bb398badb69c7577b21486f9963f}{{4.5.1.36}{43}{SIZE\_\-MAX\relax }{subsubsection.4.5.1.36}{}}
\@writefile{toc}{\contentsline {subsubsection}{\numberline {4.5.1.37}STDINT\_\discretionary {-}{}{}H\_\discretionary {-}{}{}UINTPTR\_\discretionary {-}{}{}T\_\discretionary {-}{}{}DEFINED}{43}{subsubsection.4.5.1.37}}
\newlabel{pstdint_8h_a0c58c27c9332ac03e508bb0674f15ad6}{{4.5.1.37}{43}{STDINT\_\-H\_\-UINTPTR\_\-T\_\-DEFINED\relax }{subsubsection.4.5.1.37}{}}
\@writefile{toc}{\contentsline {subsubsection}{\numberline {4.5.1.38}UINT16\_\discretionary {-}{}{}MAX}{43}{subsubsection.4.5.1.38}}
\newlabel{pstdint_8h_a3ea490c9b3617d4479bd80ef93cd5602}{{4.5.1.38}{43}{UINT16\_\-MAX\relax }{subsubsection.4.5.1.38}{}}
\@writefile{toc}{\contentsline {subsubsection}{\numberline {4.5.1.39}UINT32\_\discretionary {-}{}{}MAX}{43}{subsubsection.4.5.1.39}}
\newlabel{pstdint_8h_ab5eb23180f7cc12b7d6c04a8ec067fdd}{{4.5.1.39}{43}{UINT32\_\-MAX\relax }{subsubsection.4.5.1.39}{}}
\@writefile{toc}{\contentsline {subsubsection}{\numberline {4.5.1.40}UINT8\_\discretionary {-}{}{}MAX}{43}{subsubsection.4.5.1.40}}
\newlabel{pstdint_8h_aeb4e270a084ee26fe73e799861bd0252}{{4.5.1.40}{43}{UINT8\_\-MAX\relax }{subsubsection.4.5.1.40}{}}
\@writefile{toc}{\contentsline {subsubsection}{\numberline {4.5.1.41}UINT\_\discretionary {-}{}{}FAST16\_\discretionary {-}{}{}MAX}{43}{subsubsection.4.5.1.41}}
\newlabel{pstdint_8h_aed28ca63d9b222f6f1377358fe73a183}{{4.5.1.41}{43}{UINT\_\-FAST16\_\-MAX\relax }{subsubsection.4.5.1.41}{}}
\@writefile{toc}{\contentsline {subsubsection}{\numberline {4.5.1.42}UINT\_\discretionary {-}{}{}FAST32\_\discretionary {-}{}{}MAX}{43}{subsubsection.4.5.1.42}}
\newlabel{pstdint_8h_ad51246a178143208b2db3315efd21c45}{{4.5.1.42}{43}{UINT\_\-FAST32\_\-MAX\relax }{subsubsection.4.5.1.42}{}}
\@writefile{toc}{\contentsline {subsubsection}{\numberline {4.5.1.43}UINT\_\discretionary {-}{}{}FAST8\_\discretionary {-}{}{}MAX}{43}{subsubsection.4.5.1.43}}
\newlabel{pstdint_8h_a2c6f97ea2d76d0cf6260c84046cdb44e}{{4.5.1.43}{43}{UINT\_\-FAST8\_\-MAX\relax }{subsubsection.4.5.1.43}{}}
\@writefile{toc}{\contentsline {subsubsection}{\numberline {4.5.1.44}UINT\_\discretionary {-}{}{}LEAST16\_\discretionary {-}{}{}MAX}{44}{subsubsection.4.5.1.44}}
\newlabel{pstdint_8h_a6ef6a1a518bbf516ca8b0180b11c358f}{{4.5.1.44}{44}{UINT\_\-LEAST16\_\-MAX\relax }{subsubsection.4.5.1.44}{}}
\@writefile{toc}{\contentsline {subsubsection}{\numberline {4.5.1.45}UINT\_\discretionary {-}{}{}LEAST32\_\discretionary {-}{}{}MAX}{44}{subsubsection.4.5.1.45}}
\newlabel{pstdint_8h_a70cad8bacc9a6db301e1cdc86cc8d571}{{4.5.1.45}{44}{UINT\_\-LEAST32\_\-MAX\relax }{subsubsection.4.5.1.45}{}}
\@writefile{toc}{\contentsline {subsubsection}{\numberline {4.5.1.46}UINT\_\discretionary {-}{}{}LEAST8\_\discretionary {-}{}{}MAX}{44}{subsubsection.4.5.1.46}}
\newlabel{pstdint_8h_a2a80bde77ee1698d0f42f334adad4f2b}{{4.5.1.46}{44}{UINT\_\-LEAST8\_\-MAX\relax }{subsubsection.4.5.1.46}{}}
\@writefile{toc}{\contentsline {subsubsection}{\numberline {4.5.1.47}UINTMAX\_\discretionary {-}{}{}C}{44}{subsubsection.4.5.1.47}}
\newlabel{pstdint_8h_a572bc4e8e4eae73a2e1e6a158d3837a4}{{4.5.1.47}{44}{UINTMAX\_\-C\relax }{subsubsection.4.5.1.47}{}}
\@writefile{toc}{\contentsline {subsubsection}{\numberline {4.5.1.48}UINTMAX\_\discretionary {-}{}{}MAX}{44}{subsubsection.4.5.1.48}}
\newlabel{pstdint_8h_aa54fd5210434219e9027bfa0f0e325c8}{{4.5.1.48}{44}{UINTMAX\_\-MAX\relax }{subsubsection.4.5.1.48}{}}
\@writefile{toc}{\contentsline {subsubsection}{\numberline {4.5.1.49}ULONG\_\discretionary {-}{}{}LONG\_\discretionary {-}{}{}MAX}{44}{subsubsection.4.5.1.49}}
\newlabel{pstdint_8h_a37ae7009688ff03a821794e036e3e458}{{4.5.1.49}{44}{ULONG\_\-LONG\_\-MAX\relax }{subsubsection.4.5.1.49}{}}
\@writefile{toc}{\contentsline {subsection}{\numberline {4.5.2}Typedef Documentation}{44}{subsection.4.5.2}}
\@writefile{toc}{\contentsline {subsubsection}{\numberline {4.5.2.1}int\_\discretionary {-}{}{}fast16\_\discretionary {-}{}{}t}{44}{subsubsection.4.5.2.1}}
\newlabel{pstdint_8h_a43505f8e7533c9a3b521288e927416ad}{{4.5.2.1}{44}{int\_\-fast16\_\-t\relax }{subsubsection.4.5.2.1}{}}
\@writefile{toc}{\contentsline {subsubsection}{\numberline {4.5.2.2}int\_\discretionary {-}{}{}fast32\_\discretionary {-}{}{}t}{44}{subsubsection.4.5.2.2}}
\newlabel{pstdint_8h_adf31545bab2a12c9d12347af275bff5d}{{4.5.2.2}{44}{int\_\-fast32\_\-t\relax }{subsubsection.4.5.2.2}{}}
\@writefile{toc}{\contentsline {subsubsection}{\numberline {4.5.2.3}int\_\discretionary {-}{}{}fast8\_\discretionary {-}{}{}t}{44}{subsubsection.4.5.2.3}}
\newlabel{pstdint_8h_a77eeea3cce53483bdce021415431c1b4}{{4.5.2.3}{44}{int\_\-fast8\_\-t\relax }{subsubsection.4.5.2.3}{}}
\@writefile{toc}{\contentsline {subsubsection}{\numberline {4.5.2.4}int\_\discretionary {-}{}{}least16\_\discretionary {-}{}{}t}{44}{subsubsection.4.5.2.4}}
\newlabel{pstdint_8h_a17f379713bed2a28ac431760401253cd}{{4.5.2.4}{44}{int\_\-least16\_\-t\relax }{subsubsection.4.5.2.4}{}}
\@writefile{toc}{\contentsline {subsubsection}{\numberline {4.5.2.5}int\_\discretionary {-}{}{}least32\_\discretionary {-}{}{}t}{45}{subsubsection.4.5.2.5}}
\newlabel{pstdint_8h_a2676b57a778795e5d0598970f1407f38}{{4.5.2.5}{45}{int\_\-least32\_\-t\relax }{subsubsection.4.5.2.5}{}}
\@writefile{toc}{\contentsline {subsubsection}{\numberline {4.5.2.6}int\_\discretionary {-}{}{}least8\_\discretionary {-}{}{}t}{45}{subsubsection.4.5.2.6}}
\newlabel{pstdint_8h_aadfd725efbf565422ab13db91ccca53c}{{4.5.2.6}{45}{int\_\-least8\_\-t\relax }{subsubsection.4.5.2.6}{}}
\@writefile{toc}{\contentsline {subsubsection}{\numberline {4.5.2.7}intmax\_\discretionary {-}{}{}t}{45}{subsubsection.4.5.2.7}}
\newlabel{pstdint_8h_a1a3f3321a0166a004bde0a1e72553f2b}{{4.5.2.7}{45}{intmax\_\-t\relax }{subsubsection.4.5.2.7}{}}
\@writefile{toc}{\contentsline {subsubsection}{\numberline {4.5.2.8}intptr\_\discretionary {-}{}{}t}{45}{subsubsection.4.5.2.8}}
\newlabel{pstdint_8h_ac2abfb965e6a308c5912f9e749740d4a}{{4.5.2.8}{45}{intptr\_\-t\relax }{subsubsection.4.5.2.8}{}}
\@writefile{toc}{\contentsline {subsubsection}{\numberline {4.5.2.9}uint\_\discretionary {-}{}{}fast16\_\discretionary {-}{}{}t}{45}{subsubsection.4.5.2.9}}
\newlabel{pstdint_8h_ad22db665b43dc5f23ed8a42e015373f3}{{4.5.2.9}{45}{uint\_\-fast16\_\-t\relax }{subsubsection.4.5.2.9}{}}
\@writefile{toc}{\contentsline {subsubsection}{\numberline {4.5.2.10}uint\_\discretionary {-}{}{}fast32\_\discretionary {-}{}{}t}{45}{subsubsection.4.5.2.10}}
\newlabel{pstdint_8h_a51c746994cab2a6465693f8746b7ab52}{{4.5.2.10}{45}{uint\_\-fast32\_\-t\relax }{subsubsection.4.5.2.10}{}}
\@writefile{toc}{\contentsline {subsubsection}{\numberline {4.5.2.11}uint\_\discretionary {-}{}{}fast8\_\discretionary {-}{}{}t}{45}{subsubsection.4.5.2.11}}
\newlabel{pstdint_8h_ae3a64b0efa0110e38359b34a0f265667}{{4.5.2.11}{45}{uint\_\-fast8\_\-t\relax }{subsubsection.4.5.2.11}{}}
\@writefile{toc}{\contentsline {subsubsection}{\numberline {4.5.2.12}uint\_\discretionary {-}{}{}least16\_\discretionary {-}{}{}t}{45}{subsubsection.4.5.2.12}}
\newlabel{pstdint_8h_a4f3f6e6631cb4aaeadf1c59ff597b2fb}{{4.5.2.12}{45}{uint\_\-least16\_\-t\relax }{subsubsection.4.5.2.12}{}}
\@writefile{toc}{\contentsline {subsubsection}{\numberline {4.5.2.13}uint\_\discretionary {-}{}{}least32\_\discretionary {-}{}{}t}{45}{subsubsection.4.5.2.13}}
\newlabel{pstdint_8h_ac0af81082969e5e3f4d939b1de7002ac}{{4.5.2.13}{45}{uint\_\-least32\_\-t\relax }{subsubsection.4.5.2.13}{}}
\@writefile{toc}{\contentsline {subsubsection}{\numberline {4.5.2.14}uint\_\discretionary {-}{}{}least8\_\discretionary {-}{}{}t}{45}{subsubsection.4.5.2.14}}
\newlabel{pstdint_8h_ac76e2383debd5a3b100514044828961a}{{4.5.2.14}{45}{uint\_\-least8\_\-t\relax }{subsubsection.4.5.2.14}{}}
\@writefile{toc}{\contentsline {subsubsection}{\numberline {4.5.2.15}uintmax\_\discretionary {-}{}{}t}{46}{subsubsection.4.5.2.15}}
\newlabel{pstdint_8h_a7643e68e022fde0d947e8dc252f716d6}{{4.5.2.15}{46}{uintmax\_\-t\relax }{subsubsection.4.5.2.15}{}}
\@writefile{toc}{\contentsline {section}{\numberline {4.6}typedefsNephron.h File Reference}{46}{section.4.6}}
\newlabel{typedefs_nephron_8h}{{4.6}{46}{typedefsNephron.h File Reference\relax }{section.4.6}{}}
\@writefile{toc}{\contentsline {subsection}{\numberline {4.6.1}Define Documentation}{46}{subsection.4.6.1}}
\@writefile{toc}{\contentsline {subsubsection}{\numberline {4.6.1.1}actuatorType}{46}{subsubsection.4.6.1.1}}
\newlabel{typedefs_nephron_8h_a1e508df1b3321c998286525c958da8f2}{{4.6.1.1}{46}{actuatorType\relax }{subsubsection.4.6.1.1}{}}
\@writefile{toc}{\contentsline {subsubsection}{\numberline {4.6.1.2}sensorType}{46}{subsubsection.4.6.1.2}}
\newlabel{typedefs_nephron_8h_ae491b5d9a69870db7adc5d392030679b}{{4.6.1.2}{46}{sensorType\relax }{subsubsection.4.6.1.2}{}}
\@writefile{toc}{\contentsline {subsection}{\numberline {4.6.2}Typedef Documentation}{46}{subsection.4.6.2}}
\@writefile{toc}{\contentsline {subsubsection}{\numberline {4.6.2.1}tdActuators}{46}{subsubsection.4.6.2.1}}
\newlabel{typedefs_nephron_8h_a7aa71232ad735c351197af819ce14796}{{4.6.2.1}{46}{tdActuators\relax }{subsubsection.4.6.2.1}{}}
\@writefile{toc}{\contentsline {subsubsection}{\numberline {4.6.2.2}tdParametersSCC}{46}{subsubsection.4.6.2.2}}
\newlabel{typedefs_nephron_8h_ab001c4796c0e2d529e99b97b34217b95}{{4.6.2.2}{46}{tdParametersSCC\relax }{subsubsection.4.6.2.2}{}}
\@writefile{toc}{\contentsline {subsubsection}{\numberline {4.6.2.3}tdPhysicalSensorReadout}{46}{subsubsection.4.6.2.3}}
\newlabel{typedefs_nephron_8h_a22edb9ceee8631a11ed237be03c85ba9}{{4.6.2.3}{46}{tdPhysicalSensorReadout\relax }{subsubsection.4.6.2.3}{}}
\@writefile{toc}{\contentsline {subsubsection}{\numberline {4.6.2.4}tdPhysiologicalSensorReadout}{47}{subsubsection.4.6.2.4}}
\newlabel{typedefs_nephron_8h_ab658a8caa813b3dc204c2f0d76219294}{{4.6.2.4}{47}{tdPhysiologicalSensorReadout\relax }{subsubsection.4.6.2.4}{}}
\@writefile{toc}{\contentsline {section}{\numberline {4.7}unified\_\discretionary {-}{}{}delete.c File Reference}{47}{section.4.7}}
\newlabel{unified__delete_8c}{{4.7}{47}{unified\_\-delete.c File Reference\relax }{section.4.7}{}}
\@writefile{toc}{\contentsline {subsection}{\numberline {4.7.1}Define Documentation}{47}{subsection.4.7.1}}
\@writefile{toc}{\contentsline {subsubsection}{\numberline {4.7.1.1}PREFIX}{47}{subsubsection.4.7.1.1}}
\newlabel{unified__delete_8c_add51b53e8b628f95078327028dccb20c}{{4.7.1.1}{47}{PREFIX\relax }{subsubsection.4.7.1.1}{}}
\@writefile{toc}{\contentsline {subsubsection}{\numberline {4.7.1.2}taskMessage}{47}{subsubsection.4.7.1.2}}
\newlabel{unified__delete_8c_ad5887c6de27b0bf13acd2f8fed9ce429}{{4.7.1.2}{47}{taskMessage\relax }{subsubsection.4.7.1.2}{}}
\@writefile{toc}{\contentsline {subsection}{\numberline {4.7.2}Function Documentation}{47}{subsection.4.7.2}}
\@writefile{toc}{\contentsline {subsubsection}{\numberline {4.7.2.1}main}{47}{subsubsection.4.7.2.1}}
\newlabel{unified__delete_8c_ae66f6b31b5ad750f1fe042a706a4e3d4}{{4.7.2.1}{47}{main\relax }{subsubsection.4.7.2.1}{}}
\gdef \LT@xxi {\LT@entry 
    {1}{59.44409pt}\LT@entry 
    {1}{307.44452pt}}
\gdef \LT@xxii {\LT@entry 
    {1}{59.44409pt}\LT@entry 
    {1}{307.44452pt}}
\@writefile{toc}{\contentsline {subsubsection}{\numberline {4.7.2.2}unified\_\discretionary {-}{}{}delete}{48}{subsubsection.4.7.2.2}}
\newlabel{unified__delete_8c_aa6ff2d39b195a382f973c2ee381df47c}{{4.7.2.2}{48}{unified\_\-delete\relax }{subsubsection.4.7.2.2}{}}
\@writefile{toc}{\contentsline {section}{\numberline {4.8}unified\_\discretionary {-}{}{}delete.h File Reference}{48}{section.4.8}}
\newlabel{unified__delete_8h}{{4.8}{48}{unified\_\-delete.h File Reference\relax }{section.4.8}{}}
\@writefile{toc}{\contentsline {subsection}{\numberline {4.8.1}Function Documentation}{48}{subsection.4.8.1}}
\@writefile{toc}{\contentsline {subsubsection}{\numberline {4.8.1.1}unified\_\discretionary {-}{}{}delete}{48}{subsubsection.4.8.1.1}}
\newlabel{unified__delete_8h_aa6ff2d39b195a382f973c2ee381df47c}{{4.8.1.1}{48}{unified\_\-delete\relax }{subsubsection.4.8.1.1}{}}
\@writefile{toc}{\contentsline {section}{\numberline {4.9}unified\_\discretionary {-}{}{}read.c File Reference}{49}{section.4.9}}
\newlabel{unified__read_8c}{{4.9}{49}{unified\_\-read.c File Reference\relax }{section.4.9}{}}
\@writefile{toc}{\contentsline {subsection}{\numberline {4.9.1}Define Documentation}{49}{subsection.4.9.1}}
\@writefile{toc}{\contentsline {subsubsection}{\numberline {4.9.1.1}PREFIX}{49}{subsubsection.4.9.1.1}}
\newlabel{unified__read_8c_add51b53e8b628f95078327028dccb20c}{{4.9.1.1}{49}{PREFIX\relax }{subsubsection.4.9.1.1}{}}
\gdef \LT@xxiii {\LT@entry 
    {1}{59.44409pt}\LT@entry 
    {1}{307.44452pt}}
\gdef \LT@xxiv {\LT@entry 
    {1}{59.44409pt}\LT@entry 
    {1}{307.44452pt}}
\@writefile{toc}{\contentsline {subsubsection}{\numberline {4.9.1.2}taskMessage}{50}{subsubsection.4.9.1.2}}
\newlabel{unified__read_8c_ad5887c6de27b0bf13acd2f8fed9ce429}{{4.9.1.2}{50}{taskMessage\relax }{subsubsection.4.9.1.2}{}}
\@writefile{toc}{\contentsline {subsection}{\numberline {4.9.2}Function Documentation}{50}{subsection.4.9.2}}
\@writefile{toc}{\contentsline {subsubsection}{\numberline {4.9.2.1}extract\_\discretionary {-}{}{}timestamp}{50}{subsubsection.4.9.2.1}}
\newlabel{unified__read_8c_a46a703d69355e9d5496028ff90e353e5}{{4.9.2.1}{50}{extract\_\-timestamp\relax }{subsubsection.4.9.2.1}{}}
\@writefile{toc}{\contentsline {subsubsection}{\numberline {4.9.2.2}main}{50}{subsubsection.4.9.2.2}}
\newlabel{unified__read_8c_ae66f6b31b5ad750f1fe042a706a4e3d4}{{4.9.2.2}{50}{main\relax }{subsubsection.4.9.2.2}{}}
\@writefile{toc}{\contentsline {subsubsection}{\numberline {4.9.2.3}ReadInMemberValues}{50}{subsubsection.4.9.2.3}}
\newlabel{unified__read_8c_a8a83e919b653b698350b84c1d2d0c5aa}{{4.9.2.3}{50}{ReadInMemberValues\relax }{subsubsection.4.9.2.3}{}}
\gdef \LT@xxv {\LT@entry 
    {1}{59.44409pt}\LT@entry 
    {1}{307.44452pt}}
\@writefile{toc}{\contentsline {subsubsection}{\numberline {4.9.2.4}unified\_\discretionary {-}{}{}read}{51}{subsubsection.4.9.2.4}}
\newlabel{unified__read_8c_ac3fb7fd784f71d5e0cdf226e8eb107fc}{{4.9.2.4}{51}{unified\_\-read\relax }{subsubsection.4.9.2.4}{}}
\@writefile{toc}{\contentsline {section}{\numberline {4.10}unified\_\discretionary {-}{}{}read.h File Reference}{51}{section.4.10}}
\newlabel{unified__read_8h}{{4.10}{51}{unified\_\-read.h File Reference\relax }{section.4.10}{}}
\gdef \LT@xxvi {\LT@entry 
    {1}{59.44409pt}\LT@entry 
    {1}{307.44452pt}}
\@writefile{toc}{\contentsline {subsection}{\numberline {4.10.1}Define Documentation}{52}{subsection.4.10.1}}
\@writefile{toc}{\contentsline {subsubsection}{\numberline {4.10.1.1}taskMessage}{52}{subsubsection.4.10.1.1}}
\newlabel{unified__read_8h_ad5887c6de27b0bf13acd2f8fed9ce429}{{4.10.1.1}{52}{taskMessage\relax }{subsubsection.4.10.1.1}{}}
\@writefile{toc}{\contentsline {subsection}{\numberline {4.10.2}Function Documentation}{52}{subsection.4.10.2}}
\@writefile{toc}{\contentsline {subsubsection}{\numberline {4.10.2.1}extract\_\discretionary {-}{}{}timestamp}{52}{subsubsection.4.10.2.1}}
\newlabel{unified__read_8h_a46a703d69355e9d5496028ff90e353e5}{{4.10.2.1}{52}{extract\_\-timestamp\relax }{subsubsection.4.10.2.1}{}}
\@writefile{toc}{\contentsline {subsubsection}{\numberline {4.10.2.2}ReadInMemberValues}{52}{subsubsection.4.10.2.2}}
\newlabel{unified__read_8h_a8a83e919b653b698350b84c1d2d0c5aa}{{4.10.2.2}{52}{ReadInMemberValues\relax }{subsubsection.4.10.2.2}{}}
\gdef \LT@xxvii {\LT@entry 
    {1}{59.44409pt}\LT@entry 
    {1}{307.44452pt}}
\gdef \LT@xxviii {\LT@entry 
    {1}{59.44409pt}\LT@entry 
    {1}{307.44452pt}}
\@writefile{toc}{\contentsline {subsubsection}{\numberline {4.10.2.3}unified\_\discretionary {-}{}{}read}{53}{subsubsection.4.10.2.3}}
\newlabel{unified__read_8h_ac3fb7fd784f71d5e0cdf226e8eb107fc}{{4.10.2.3}{53}{unified\_\-read\relax }{subsubsection.4.10.2.3}{}}
\@writefile{toc}{\contentsline {section}{\numberline {4.11}unified\_\discretionary {-}{}{}write.c File Reference}{53}{section.4.11}}
\newlabel{unified__write_8c}{{4.11}{53}{unified\_\-write.c File Reference\relax }{section.4.11}{}}
\@writefile{toc}{\contentsline {subsection}{\numberline {4.11.1}Define Documentation}{54}{subsection.4.11.1}}
\@writefile{toc}{\contentsline {subsubsection}{\numberline {4.11.1.1}PREFIX}{54}{subsubsection.4.11.1.1}}
\newlabel{unified__write_8c_add51b53e8b628f95078327028dccb20c}{{4.11.1.1}{54}{PREFIX\relax }{subsubsection.4.11.1.1}{}}
\@writefile{toc}{\contentsline {subsubsection}{\numberline {4.11.1.2}taskMessage}{54}{subsubsection.4.11.1.2}}
\newlabel{unified__write_8c_ad5887c6de27b0bf13acd2f8fed9ce429}{{4.11.1.2}{54}{taskMessage\relax }{subsubsection.4.11.1.2}{}}
\@writefile{toc}{\contentsline {subsection}{\numberline {4.11.2}Function Documentation}{54}{subsection.4.11.2}}
\@writefile{toc}{\contentsline {subsubsection}{\numberline {4.11.2.1}unified\_\discretionary {-}{}{}write}{54}{subsubsection.4.11.2.1}}
\newlabel{unified__write_8c_a2e0650772f4f73a0c3f9648775139182}{{4.11.2.1}{54}{unified\_\-write\relax }{subsubsection.4.11.2.1}{}}
\gdef \LT@xxix {\LT@entry 
    {1}{59.44409pt}\LT@entry 
    {1}{307.44452pt}}
\@writefile{toc}{\contentsline {subsubsection}{\numberline {4.11.2.2}writeOutMemberValues}{55}{subsubsection.4.11.2.2}}
\newlabel{unified__write_8c_a4c1a8c682d063266503d7b040213ceb3}{{4.11.2.2}{55}{writeOutMemberValues\relax }{subsubsection.4.11.2.2}{}}
\@writefile{toc}{\contentsline {section}{\numberline {4.12}unified\_\discretionary {-}{}{}write.h File Reference}{55}{section.4.12}}
\newlabel{unified__write_8h}{{4.12}{55}{unified\_\-write.h File Reference\relax }{section.4.12}{}}
\@writefile{toc}{\contentsline {subsection}{\numberline {4.12.1}Define Documentation}{56}{subsection.4.12.1}}
\@writefile{toc}{\contentsline {subsubsection}{\numberline {4.12.1.1}DBUFFER\_\discretionary {-}{}{}CSVLINE\_\discretionary {-}{}{}SIZE}{56}{subsubsection.4.12.1.1}}
\newlabel{unified__write_8h_a9455acda67ff9224e1fe111319c56aba}{{4.12.1.1}{56}{DBUFFER\_\-CSVLINE\_\-SIZE\relax }{subsubsection.4.12.1.1}{}}
\@writefile{toc}{\contentsline {subsubsection}{\numberline {4.12.1.2}FILENAME\_\discretionary {-}{}{}LENGTH}{56}{subsubsection.4.12.1.2}}
\newlabel{unified__write_8h_a610ce22de673afc7b1e8b0e7b3c9fe7a}{{4.12.1.2}{56}{FILENAME\_\-LENGTH\relax }{subsubsection.4.12.1.2}{}}
\@writefile{toc}{\contentsline {subsubsection}{\numberline {4.12.1.3}SELECT\_\discretionary {-}{}{}NOT\_\discretionary {-}{}{}FLT}{56}{subsubsection.4.12.1.3}}
\newlabel{unified__write_8h_a6e9874ab98b458bb304a69394a1f4fbd}{{4.12.1.3}{56}{SELECT\_\-NOT\_\-FLT\relax }{subsubsection.4.12.1.3}{}}
\@writefile{toc}{\contentsline {subsubsection}{\numberline {4.12.1.4}SELECT\_\discretionary {-}{}{}NOT\_\discretionary {-}{}{}INT}{56}{subsubsection.4.12.1.4}}
\newlabel{unified__write_8h_a97dc8976814d947e43793bc906a99273}{{4.12.1.4}{56}{SELECT\_\-NOT\_\-INT\relax }{subsubsection.4.12.1.4}{}}
\gdef \LT@xxx {\LT@entry 
    {1}{59.44409pt}\LT@entry 
    {1}{307.44452pt}}
\@writefile{toc}{\contentsline {subsubsection}{\numberline {4.12.1.5}taskMessage}{57}{subsubsection.4.12.1.5}}
\newlabel{unified__write_8h_ad5887c6de27b0bf13acd2f8fed9ce429}{{4.12.1.5}{57}{taskMessage\relax }{subsubsection.4.12.1.5}{}}
\@writefile{toc}{\contentsline {subsection}{\numberline {4.12.2}Function Documentation}{57}{subsection.4.12.2}}
\@writefile{toc}{\contentsline {subsubsection}{\numberline {4.12.2.1}unified\_\discretionary {-}{}{}write}{57}{subsubsection.4.12.2.1}}
\newlabel{unified__write_8h_a2e0650772f4f73a0c3f9648775139182}{{4.12.2.1}{57}{unified\_\-write\relax }{subsubsection.4.12.2.1}{}}
\@writefile{toc}{\contentsline {subsubsection}{\numberline {4.12.2.2}writeOutMemberValues}{57}{subsubsection.4.12.2.2}}
\newlabel{unified__write_8h_a4c1a8c682d063266503d7b040213ceb3}{{4.12.2.2}{57}{writeOutMemberValues\relax }{subsubsection.4.12.2.2}{}}
