\BOOKMARK [0][-]{chapter.1}{\376\377\000D\000a\000t\000a\000\040\000S\000t\000r\000u\000c\000t\000u\000r\000e\000\040\000I\000n\000d\000e\000x}{}% 1
\BOOKMARK [1][-]{section.1.1}{\376\377\000D\000a\000t\000a\000\040\000S\000t\000r\000u\000c\000t\000u\000r\000e\000s}{chapter.1}% 2
\BOOKMARK [0][-]{chapter.2}{\376\377\000F\000i\000l\000e\000\040\000I\000n\000d\000e\000x}{}% 3
\BOOKMARK [1][-]{section.2.1}{\376\377\000F\000i\000l\000e\000\040\000L\000i\000s\000t}{chapter.2}% 4
\BOOKMARK [0][-]{chapter.3}{\376\377\000D\000a\000t\000a\000\040\000S\000t\000r\000u\000c\000t\000u\000r\000e\000\040\000D\000o\000c\000u\000m\000e\000n\000t\000a\000t\000i\000o\000n}{}% 5
\BOOKMARK [1][-]{section.3.1}{\376\377\000s\000t\000r\000A\000c\000t\000u\000a\000t\000o\000r\000s\000\040\000S\000t\000r\000u\000c\000t\000\040\000R\000e\000f\000e\000r\000e\000n\000c\000e}{chapter.3}% 6
\BOOKMARK [2][-]{subsection.3.1.1}{\376\377\000D\000e\000t\000a\000i\000l\000e\000d\000\040\000D\000e\000s\000c\000r\000i\000p\000t\000i\000o\000n}{section.3.1}% 7
\BOOKMARK [2][-]{subsection.3.1.2}{\376\377\000F\000i\000e\000l\000d\000\040\000D\000o\000c\000u\000m\000e\000n\000t\000a\000t\000i\000o\000n}{section.3.1}% 8
\BOOKMARK [3][-]{subsubsection.3.1.2.1}{\376\377\000b\000l\000o\000o\000d\000P\000u\000m\000p}{subsection.3.1.2}% 9
\BOOKMARK [3][-]{subsubsection.3.1.2.2}{\376\377\000f\000l\000u\000i\000d\000P\000u\000m\000p}{subsection.3.1.2}% 10
\BOOKMARK [3][-]{subsubsection.3.1.2.3}{\376\377\000p\000o\000l\000a\000r\000i\000z\000e\000r}{subsection.3.1.2}% 11
\BOOKMARK [3][-]{subsubsection.3.1.2.4}{\376\377\000s\000w\000i\000t\000c\000h\0001}{subsection.3.1.2}% 12
\BOOKMARK [3][-]{subsubsection.3.1.2.5}{\376\377\000s\000w\000i\000t\000c\000h\0002}{subsection.3.1.2}% 13
\BOOKMARK [3][-]{subsubsection.3.1.2.6}{\376\377\000t\000i\000m\000e\000s\000t\000a\000m\000p}{subsection.3.1.2}% 14
\BOOKMARK [1][-]{section.3.2}{\376\377\000s\000t\000r\000P\000a\000r\000a\000m\000e\000t\000e\000r\000s\000S\000C\000C\000\040\000S\000t\000r\000u\000c\000t\000\040\000R\000e\000f\000e\000r\000e\000n\000c\000e}{chapter.3}% 15
\BOOKMARK [2][-]{subsection.3.2.1}{\376\377\000D\000e\000t\000a\000i\000l\000e\000d\000\040\000D\000e\000s\000c\000r\000i\000p\000t\000i\000o\000n}{section.3.2}% 16
\BOOKMARK [2][-]{subsection.3.2.2}{\376\377\000F\000i\000e\000l\000d\000\040\000D\000o\000c\000u\000m\000e\000n\000t\000a\000t\000i\000o\000n}{section.3.2}% 17
\BOOKMARK [3][-]{subsubsection.3.2.2.1}{\376\377\000A\000\137\000d\000m\0002}{subsection.3.2.2}% 18
\BOOKMARK [3][-]{subsubsection.3.2.2.2}{\376\377\000B\000a\000t\000S\000t\000a\000t\000T}{subsection.3.2.2}% 19
\BOOKMARK [3][-]{subsubsection.3.2.2.3}{\376\377\000B\000P\000d\000i\000a\000A\000A\000b\000s\000H}{subsection.3.2.2}% 20
\BOOKMARK [3][-]{subsubsection.3.2.2.4}{\376\377\000B\000P\000d\000i\000a\000A\000b\000s\000H}{subsection.3.2.2}% 21
\BOOKMARK [3][-]{subsubsection.3.2.2.5}{\376\377\000B\000P\000d\000i\000a\000A\000b\000s\000L}{subsection.3.2.2}% 22
\BOOKMARK [3][-]{subsubsection.3.2.2.6}{\376\377\000B\000P\000S\000i\000T\000H}{subsection.3.2.2}% 23
\BOOKMARK [3][-]{subsubsection.3.2.2.7}{\376\377\000B\000P\000S\000i\000T\000L}{subsection.3.2.2}% 24
\BOOKMARK [3][-]{subsubsection.3.2.2.8}{\376\377\000B\000P\000S\000o\000T\000H}{subsection.3.2.2}% 25
\BOOKMARK [3][-]{subsubsection.3.2.2.9}{\376\377\000B\000P\000S\000o\000T\000L}{subsection.3.2.2}% 26
\BOOKMARK [3][-]{subsubsection.3.2.2.10}{\376\377\000B\000P\000s\000y\000s\000A\000A\000b\000s\000H}{subsection.3.2.2}% 27
\BOOKMARK [3][-]{subsubsection.3.2.2.11}{\376\377\000B\000P\000s\000y\000s\000A\000b\000s\000H}{subsection.3.2.2}% 28
\BOOKMARK [3][-]{subsubsection.3.2.2.12}{\376\377\000B\000P\000s\000y\000s\000A\000b\000s\000L}{subsection.3.2.2}% 29
\BOOKMARK [3][-]{subsubsection.3.2.2.13}{\376\377\000B\000T\000S\000i\000T\000H}{subsection.3.2.2}% 30
\BOOKMARK [3][-]{subsubsection.3.2.2.14}{\376\377\000B\000T\000S\000i\000T\000L}{subsection.3.2.2}% 31
\BOOKMARK [3][-]{subsubsection.3.2.2.15}{\376\377\000B\000T\000S\000o\000T\000H}{subsection.3.2.2}% 32
\BOOKMARK [3][-]{subsubsection.3.2.2.16}{\376\377\000B\000T\000S\000o\000T\000L}{subsection.3.2.2}% 33
\BOOKMARK [3][-]{subsubsection.3.2.2.17}{\376\377\000C\000a\000A\000A\000b\000s\000H}{subsection.3.2.2}% 34
\BOOKMARK [3][-]{subsubsection.3.2.2.18}{\376\377\000C\000a\000A\000A\000b\000s\000L}{subsection.3.2.2}% 35
\BOOKMARK [3][-]{subsubsection.3.2.2.19}{\376\377\000C\000a\000A\000b\000s\000H}{subsection.3.2.2}% 36
\BOOKMARK [3][-]{subsubsection.3.2.2.20}{\376\377\000C\000a\000A\000b\000s\000L}{subsection.3.2.2}% 37
\BOOKMARK [3][-]{subsubsection.3.2.2.21}{\376\377\000C\000a\000A\000d\000r}{subsection.3.2.2}% 38
\BOOKMARK [3][-]{subsubsection.3.2.2.22}{\376\377\000c\000a\000p\000\137\000K}{subsection.3.2.2}% 39
\BOOKMARK [3][-]{subsubsection.3.2.2.23}{\376\377\000c\000a\000p\000\137\000P\000h}{subsection.3.2.2}% 40
\BOOKMARK [3][-]{subsubsection.3.2.2.24}{\376\377\000C\000a\000T\000r\000d\000H\000P\000s\000T}{subsection.3.2.2}% 41
\BOOKMARK [3][-]{subsubsection.3.2.2.25}{\376\377\000C\000a\000T\000r\000d\000H\000T}{subsection.3.2.2}% 42
\BOOKMARK [3][-]{subsubsection.3.2.2.26}{\376\377\000C\000a\000T\000r\000d\000L\000P\000s\000T}{subsection.3.2.2}% 43
\BOOKMARK [3][-]{subsubsection.3.2.2.27}{\376\377\000C\000a\000T\000r\000d\000L\000T}{subsection.3.2.2}% 44
\BOOKMARK [3][-]{subsubsection.3.2.2.28}{\376\377\000C\000r\000e\000a\000A\000b\000s\000H}{subsection.3.2.2}% 45
\BOOKMARK [3][-]{subsubsection.3.2.2.29}{\376\377\000C\000r\000e\000a\000A\000b\000s\000L}{subsection.3.2.2}% 46
\BOOKMARK [3][-]{subsubsection.3.2.2.30}{\376\377\000C\000r\000e\000a\000A\000d\000r}{subsection.3.2.2}% 47
\BOOKMARK [3][-]{subsubsection.3.2.2.31}{\376\377\000C\000r\000e\000a\000T\000r\000d\000H\000P\000s\000T}{subsection.3.2.2}% 48
\BOOKMARK [3][-]{subsubsection.3.2.2.32}{\376\377\000C\000r\000e\000a\000T\000r\000d\000H\000T}{subsection.3.2.2}% 49
\BOOKMARK [3][-]{subsubsection.3.2.2.33}{\376\377\000f\000\137\000K}{subsection.3.2.2}% 50
\BOOKMARK [3][-]{subsubsection.3.2.2.34}{\376\377\000f\000\137\000P\000h}{subsection.3.2.2}% 51
\BOOKMARK [3][-]{subsubsection.3.2.2.35}{\376\377\000F\000D\000p\000T\000H}{subsection.3.2.2}% 52
\BOOKMARK [3][-]{subsubsection.3.2.2.36}{\376\377\000F\000D\000p\000T\000L}{subsection.3.2.2}% 53
\BOOKMARK [3][-]{subsubsection.3.2.2.37}{\376\377\000F\000P\000S\0001\000T\000H}{subsection.3.2.2}% 54
\BOOKMARK [3][-]{subsubsection.3.2.2.38}{\376\377\000F\000P\000S\0001\000T\000L}{subsection.3.2.2}% 55
\BOOKMARK [3][-]{subsubsection.3.2.2.39}{\376\377\000F\000P\000S\0002\000T\000H}{subsection.3.2.2}% 56
\BOOKMARK [3][-]{subsubsection.3.2.2.40}{\376\377\000F\000P\000S\0002\000T\000L}{subsection.3.2.2}% 57
\BOOKMARK [3][-]{subsubsection.3.2.2.41}{\376\377\000F\000r\000e\000f\000\137\000K}{subsection.3.2.2}% 58
\BOOKMARK [3][-]{subsubsection.3.2.2.42}{\376\377\000F\000r\000e\000f\000\137\000P\000h}{subsection.3.2.2}% 59
\BOOKMARK [3][-]{subsubsection.3.2.2.43}{\376\377\000H\000C\000O\0003\000A\000A\000b\000s\000L}{subsection.3.2.2}% 60
\BOOKMARK [3][-]{subsubsection.3.2.2.44}{\376\377\000H\000C\000O\0003\000A\000b\000s\000H}{subsection.3.2.2}% 61
\BOOKMARK [3][-]{subsubsection.3.2.2.45}{\376\377\000H\000C\000O\0003\000A\000b\000s\000L}{subsection.3.2.2}% 62
\BOOKMARK [3][-]{subsubsection.3.2.2.46}{\376\377\000H\000C\000O\0003\000A\000d\000r}{subsection.3.2.2}% 63
\BOOKMARK [3][-]{subsubsection.3.2.2.47}{\376\377\000H\000C\000O\0003\000T\000r\000d\000H\000P\000s\000T}{subsection.3.2.2}% 64
\BOOKMARK [3][-]{subsubsection.3.2.2.48}{\376\377\000H\000C\000O\0003\000T\000r\000d\000H\000T}{subsection.3.2.2}% 65
\BOOKMARK [3][-]{subsubsection.3.2.2.49}{\376\377\000H\000C\000O\0003\000T\000r\000d\000L\000P\000s\000T}{subsection.3.2.2}% 66
\BOOKMARK [3][-]{subsubsection.3.2.2.50}{\376\377\000H\000C\000O\0003\000T\000r\000d\000L\000T}{subsection.3.2.2}% 67
\BOOKMARK [3][-]{subsubsection.3.2.2.51}{\376\377\000K\000A\000A\000H}{subsection.3.2.2}% 68
\BOOKMARK [3][-]{subsubsection.3.2.2.52}{\376\377\000K\000A\000A\000L}{subsection.3.2.2}% 69
\BOOKMARK [3][-]{subsubsection.3.2.2.53}{\376\377\000K\000A\000b\000s\000H}{subsection.3.2.2}% 70
\BOOKMARK [3][-]{subsubsection.3.2.2.54}{\376\377\000K\000A\000b\000s\000L}{subsection.3.2.2}% 71
\BOOKMARK [3][-]{subsubsection.3.2.2.55}{\376\377\000K\000T\000r\000d\000H\000P\000s\000T}{subsection.3.2.2}% 72
\BOOKMARK [3][-]{subsubsection.3.2.2.56}{\376\377\000K\000T\000r\000d\000H\000T}{subsection.3.2.2}% 73
\BOOKMARK [3][-]{subsubsection.3.2.2.57}{\376\377\000K\000T\000r\000d\000L\000P\000s\000T}{subsection.3.2.2}% 74
\BOOKMARK [3][-]{subsubsection.3.2.2.58}{\376\377\000K\000T\000r\000d\000L\000T}{subsection.3.2.2}% 75
\BOOKMARK [3][-]{subsubsection.3.2.2.59}{\376\377\000m\000s\000p\000T}{subsection.3.2.2}% 76
\BOOKMARK [3][-]{subsubsection.3.2.2.60}{\376\377\000N\000a\000A\000b\000s\000H}{subsection.3.2.2}% 77
\BOOKMARK [3][-]{subsubsection.3.2.2.61}{\376\377\000N\000a\000A\000b\000s\000L}{subsection.3.2.2}% 78
\BOOKMARK [3][-]{subsubsection.3.2.2.62}{\376\377\000N\000a\000T\000r\000d\000H\000P\000s\000T}{subsection.3.2.2}% 79
\BOOKMARK [3][-]{subsubsection.3.2.2.63}{\376\377\000N\000a\000T\000r\000d\000H\000T}{subsection.3.2.2}% 80
\BOOKMARK [3][-]{subsubsection.3.2.2.64}{\376\377\000N\000a\000T\000r\000d\000L\000P\000s\000T}{subsection.3.2.2}% 81
\BOOKMARK [3][-]{subsubsection.3.2.2.65}{\376\377\000N\000a\000T\000r\000d\000L\000T}{subsection.3.2.2}% 82
\BOOKMARK [3][-]{subsubsection.3.2.2.66}{\376\377\000P\000\137\000K}{subsection.3.2.2}% 83
\BOOKMARK [3][-]{subsubsection.3.2.2.67}{\376\377\000P\000\137\000P\000h}{subsection.3.2.2}% 84
\BOOKMARK [3][-]{subsubsection.3.2.2.68}{\376\377\000P\000h\000A\000A\000b\000s\000H}{subsection.3.2.2}% 85
\BOOKMARK [3][-]{subsubsection.3.2.2.69}{\376\377\000P\000h\000A\000A\000b\000s\000L}{subsection.3.2.2}% 86
\BOOKMARK [3][-]{subsubsection.3.2.2.70}{\376\377\000P\000h\000A\000b\000s\000H}{subsection.3.2.2}% 87
\BOOKMARK [3][-]{subsubsection.3.2.2.71}{\376\377\000P\000h\000A\000b\000s\000L}{subsection.3.2.2}% 88
\BOOKMARK [3][-]{subsubsection.3.2.2.72}{\376\377\000P\000h\000o\000s\000A\000A\000b\000s\000H}{subsection.3.2.2}% 89
\BOOKMARK [3][-]{subsubsection.3.2.2.73}{\376\377\000P\000h\000o\000s\000A\000b\000s\000H}{subsection.3.2.2}% 90
\BOOKMARK [3][-]{subsubsection.3.2.2.74}{\376\377\000P\000h\000o\000s\000A\000b\000s\000L}{subsection.3.2.2}% 91
\BOOKMARK [3][-]{subsubsection.3.2.2.75}{\376\377\000P\000h\000o\000s\000T\000r\000d\000H\000P\000s\000T}{subsection.3.2.2}% 92
\BOOKMARK [3][-]{subsubsection.3.2.2.76}{\376\377\000P\000h\000o\000s\000T\000r\000d\000H\000T}{subsection.3.2.2}% 93
\BOOKMARK [3][-]{subsubsection.3.2.2.77}{\376\377\000P\000h\000o\000s\000T\000r\000d\000L\000P\000s\000T}{subsection.3.2.2}% 94
\BOOKMARK [3][-]{subsubsection.3.2.2.78}{\376\377\000P\000h\000o\000s\000T\000r\000d\000L\000T}{subsection.3.2.2}% 95
\BOOKMARK [3][-]{subsubsection.3.2.2.79}{\376\377\000P\000h\000T\000r\000d\000H\000P\000s\000T}{subsection.3.2.2}% 96
\BOOKMARK [3][-]{subsubsection.3.2.2.80}{\376\377\000P\000h\000T\000r\000d\000H\000T}{subsection.3.2.2}% 97
\BOOKMARK [3][-]{subsubsection.3.2.2.81}{\376\377\000P\000h\000T\000r\000d\000L\000P\000s\000T}{subsection.3.2.2}% 98
\BOOKMARK [3][-]{subsubsection.3.2.2.82}{\376\377\000P\000h\000T\000r\000d\000L\000T}{subsection.3.2.2}% 99
\BOOKMARK [3][-]{subsubsection.3.2.2.83}{\376\377\000p\000u\000m\000p\000B\000a\000c\000c\000D\000e\000v\000i}{subsection.3.2.2}% 100
\BOOKMARK [3][-]{subsubsection.3.2.2.84}{\376\377\000p\000u\000m\000p\000F\000a\000c\000c\000D\000e\000v\000i}{subsection.3.2.2}% 101
\BOOKMARK [3][-]{subsubsection.3.2.2.85}{\376\377\000S\000C\000A\000P\000\137\000K}{subsection.3.2.2}% 102
\BOOKMARK [3][-]{subsubsection.3.2.2.86}{\376\377\000S\000C\000A\000P\000\137\000P\000h}{subsection.3.2.2}% 103
\BOOKMARK [3][-]{subsubsection.3.2.2.87}{\376\377\000U\000r\000e\000a\000A\000A\000b\000s\000H}{subsection.3.2.2}% 104
\BOOKMARK [3][-]{subsubsection.3.2.2.88}{\376\377\000U\000r\000e\000a\000T\000r\000d\000H\000P\000s\000T}{subsection.3.2.2}% 105
\BOOKMARK [3][-]{subsubsection.3.2.2.89}{\376\377\000U\000r\000e\000a\000T\000r\000d\000H\000T}{subsection.3.2.2}% 106
\BOOKMARK [3][-]{subsubsection.3.2.2.90}{\376\377\000V\000e\000r\000t\000D\000e\000f\000l\000e\000c\000i\000t\000o\000n\000T}{subsection.3.2.2}% 107
\BOOKMARK [3][-]{subsubsection.3.2.2.91}{\376\377\000W\000g\000h\000t\000A\000b\000s\000H}{subsection.3.2.2}% 108
\BOOKMARK [3][-]{subsubsection.3.2.2.92}{\376\377\000W\000g\000h\000t\000A\000b\000s\000L}{subsection.3.2.2}% 109
\BOOKMARK [3][-]{subsubsection.3.2.2.93}{\376\377\000W\000g\000h\000t\000T\000r\000d\000T}{subsection.3.2.2}% 110
\BOOKMARK [3][-]{subsubsection.3.2.2.94}{\376\377\000w\000g\000t\000C\000a}{subsection.3.2.2}% 111
\BOOKMARK [3][-]{subsubsection.3.2.2.95}{\376\377\000w\000g\000t\000C\000r\000e\000a}{subsection.3.2.2}% 112
\BOOKMARK [3][-]{subsubsection.3.2.2.96}{\376\377\000w\000g\000t\000H\000C\000O\0003}{subsection.3.2.2}% 113
\BOOKMARK [3][-]{subsubsection.3.2.2.97}{\376\377\000w\000g\000t\000K}{subsection.3.2.2}% 114
\BOOKMARK [3][-]{subsubsection.3.2.2.98}{\376\377\000w\000g\000t\000N\000a}{subsection.3.2.2}% 115
\BOOKMARK [3][-]{subsubsection.3.2.2.99}{\376\377\000w\000g\000t\000P\000h\000o\000s}{subsection.3.2.2}% 116
\BOOKMARK [3][-]{subsubsection.3.2.2.100}{\376\377\000w\000g\000t\000U\000r}{subsection.3.2.2}% 117
\BOOKMARK [1][-]{section.3.3}{\376\377\000s\000t\000r\000P\000h\000y\000s\000i\000c\000a\000l\000S\000e\000n\000s\000o\000r\000R\000e\000a\000d\000o\000u\000t\000\040\000S\000t\000r\000u\000c\000t\000\040\000R\000e\000f\000e\000r\000e\000n\000c\000e}{chapter.3}% 118
\BOOKMARK [2][-]{subsection.3.3.1}{\376\377\000D\000e\000t\000a\000i\000l\000e\000d\000\040\000D\000e\000s\000c\000r\000i\000p\000t\000i\000o\000n}{section.3.3}% 119
\BOOKMARK [2][-]{subsection.3.3.2}{\376\377\000F\000i\000e\000l\000d\000\040\000D\000o\000c\000u\000m\000e\000n\000t\000a\000t\000i\000o\000n}{section.3.3}% 120
\BOOKMARK [3][-]{subsubsection.3.3.2.1}{\376\377\000b\000a\000b\000d\000S\000t\000a\000t\000u\000s\000B\000u\000b\000b\000l\000e}{subsection.3.3.2}% 121
\BOOKMARK [3][-]{subsubsection.3.3.2.2}{\376\377\000b\000p\000s\000i\000B\000l\000o\000o\000d\000P\000r\000e\000s\000s\000u\000r\000e}{subsection.3.3.2}% 122
\BOOKMARK [3][-]{subsubsection.3.3.2.3}{\376\377\000b\000p\000s\000o\000B\000l\000o\000o\000d\000P\000r\000e\000s\000s\000u\000r\000e}{subsection.3.3.2}% 123
\BOOKMARK [3][-]{subsubsection.3.3.2.4}{\376\377\000d\000c\000s\000C\000o\000n\000d\000u\000c\000t\000F\000c\000q}{subsection.3.3.2}% 124
\BOOKMARK [3][-]{subsubsection.3.3.2.5}{\376\377\000d\000c\000s\000C\000o\000n\000d\000u\000c\000t\000F\000c\000r}{subsection.3.3.2}% 125
\BOOKMARK [3][-]{subsubsection.3.3.2.6}{\376\377\000f\000l\000o\000w\000B\000l\000o\000o\000d}{subsection.3.3.2}% 126
\BOOKMARK [3][-]{subsubsection.3.3.2.7}{\376\377\000f\000l\000o\000w\000F\000l\000u\000i\000d\000i\000c}{subsection.3.3.2}% 127
\BOOKMARK [3][-]{subsubsection.3.3.2.8}{\376\377\000f\000p\000s\000i\000F\000l\000u\000i\000d\000i\000c\000P\000r\000e\000s\000s\000u\000r\000e}{subsection.3.3.2}% 128
\BOOKMARK [3][-]{subsubsection.3.3.2.9}{\376\377\000f\000p\000s\000o\000F\000l\000u\000i\000d\000i\000c\000P\000r\000e\000s\000s\000u\000r\000e}{subsection.3.3.2}% 129
\BOOKMARK [3][-]{subsubsection.3.3.2.10}{\376\377\000m\000f\000s\000i\000S\000t\000a\000t\000u\000s\000S\000w\000i\000t\000c\000h}{subsection.3.3.2}% 130
\BOOKMARK [3][-]{subsubsection.3.3.2.11}{\376\377\000m\000f\000s\000o\000S\000t\000a\000t\000u\000s\000S\000w\000i\000t\000c\000h}{subsection.3.3.2}% 131
\BOOKMARK [3][-]{subsubsection.3.3.2.12}{\376\377\000p\000u\000m\000p\000S\000p\000e\000e\000d\000B\000l\000o\000o\000d}{subsection.3.3.2}% 132
\BOOKMARK [3][-]{subsubsection.3.3.2.13}{\376\377\000p\000u\000m\000p\000S\000p\000e\000e\000d\000F\000l\000u\000i\000d\000i\000c}{subsection.3.3.2}% 133
\BOOKMARK [3][-]{subsubsection.3.3.2.14}{\376\377\000s\000t\000a\000t\000u\000s\000B\000l\000o\000o\000d\000L\000e\000a\000k\000a\000g\000e}{subsection.3.3.2}% 134
\BOOKMARK [3][-]{subsubsection.3.3.2.15}{\376\377\000s\000t\000a\000t\000u\000s\000E\000c\000p\000i}{subsection.3.3.2}% 135
\BOOKMARK [3][-]{subsubsection.3.3.2.16}{\376\377\000s\000t\000a\000t\000u\000s\000E\000c\000p\000o}{subsection.3.3.2}% 136
\BOOKMARK [3][-]{subsubsection.3.3.2.17}{\376\377\000s\000t\000a\000t\000u\000s\000F\000l\000u\000i\000d\000i\000c\000L\000e\000a\000k\000a\000g\000e}{subsection.3.3.2}% 137
\BOOKMARK [3][-]{subsubsection.3.3.2.18}{\376\377\000s\000t\000a\000t\000u\000s\000P\000o\000l\000a\000r\000i\000z\000a\000t\000i\000o\000n}{subsection.3.3.2}% 138
\BOOKMARK [3][-]{subsubsection.3.3.2.19}{\376\377\000t\000i\000m\000e\000s\000t\000a\000m\000p}{subsection.3.3.2}% 139
\BOOKMARK [1][-]{section.3.4}{\376\377\000s\000t\000r\000P\000h\000y\000s\000i\000o\000l\000o\000g\000i\000c\000a\000l\000S\000e\000n\000s\000o\000r\000R\000e\000a\000d\000o\000u\000t\000\040\000S\000t\000r\000u\000c\000t\000\040\000R\000e\000f\000e\000r\000e\000n\000c\000e}{chapter.3}% 140
\BOOKMARK [2][-]{subsection.3.4.1}{\376\377\000D\000e\000t\000a\000i\000l\000e\000d\000\040\000D\000e\000s\000c\000r\000i\000p\000t\000i\000o\000n}{section.3.4}% 141
\BOOKMARK [2][-]{subsection.3.4.2}{\376\377\000F\000i\000e\000l\000d\000\040\000D\000o\000c\000u\000m\000e\000n\000t\000a\000t\000i\000o\000n}{section.3.4}% 142
\BOOKMARK [3][-]{subsubsection.3.4.2.1}{\376\377\000b\000t\000s\000i\000T\000e\000m\000p\000e\000r\000a\000t\000u\000r\000e}{subsection.3.4.2}% 143
\BOOKMARK [3][-]{subsubsection.3.4.2.2}{\376\377\000b\000t\000s\000o\000T\000e\000m\000p\000e\000r\000a\000t\000u\000r\000e}{subsection.3.4.2}% 144
\BOOKMARK [3][-]{subsubsection.3.4.2.3}{\376\377\000e\000c\000p\000i\000C\0004\000H\0009\000N\0003\000O\0002}{subsection.3.4.2}% 145
\BOOKMARK [3][-]{subsubsection.3.4.2.4}{\376\377\000e\000c\000p\000i\000C\000a}{subsection.3.4.2}% 146
\BOOKMARK [3][-]{subsubsection.3.4.2.5}{\376\377\000e\000c\000p\000i\000H\0002\000P\000O\0004}{subsection.3.4.2}% 147
\BOOKMARK [3][-]{subsubsection.3.4.2.6}{\376\377\000e\000c\000p\000i\000H\000C\000O\0003}{subsection.3.4.2}% 148
\BOOKMARK [3][-]{subsubsection.3.4.2.7}{\376\377\000e\000c\000p\000i\000K}{subsection.3.4.2}% 149
\BOOKMARK [3][-]{subsubsection.3.4.2.8}{\376\377\000e\000c\000p\000i\000M\000g}{subsection.3.4.2}% 150
\BOOKMARK [3][-]{subsubsection.3.4.2.9}{\376\377\000e\000c\000p\000i\000N\000a}{subsection.3.4.2}% 151
\BOOKMARK [3][-]{subsubsection.3.4.2.10}{\376\377\000e\000c\000p\000i\000P\000H}{subsection.3.4.2}% 152
\BOOKMARK [3][-]{subsubsection.3.4.2.11}{\376\377\000e\000c\000p\000i\000T\000e\000m\000p\000e\000r\000a\000t\000u\000r\000e}{subsection.3.4.2}% 153
\BOOKMARK [3][-]{subsubsection.3.4.2.12}{\376\377\000e\000c\000p\000i\000U\000r\000e\000a}{subsection.3.4.2}% 154
\BOOKMARK [3][-]{subsubsection.3.4.2.13}{\376\377\000e\000c\000p\000o\000C\0004\000H\0009\000N\0003\000O\0002}{subsection.3.4.2}% 155
\BOOKMARK [3][-]{subsubsection.3.4.2.14}{\376\377\000e\000c\000p\000o\000C\000a}{subsection.3.4.2}% 156
\BOOKMARK [3][-]{subsubsection.3.4.2.15}{\376\377\000e\000c\000p\000o\000H\0002\000P\000O\0004}{subsection.3.4.2}% 157
\BOOKMARK [3][-]{subsubsection.3.4.2.16}{\376\377\000e\000c\000p\000o\000H\000C\000O\0003}{subsection.3.4.2}% 158
\BOOKMARK [3][-]{subsubsection.3.4.2.17}{\376\377\000e\000c\000p\000o\000K}{subsection.3.4.2}% 159
\BOOKMARK [3][-]{subsubsection.3.4.2.18}{\376\377\000e\000c\000p\000o\000M\000g}{subsection.3.4.2}% 160
\BOOKMARK [3][-]{subsubsection.3.4.2.19}{\376\377\000e\000c\000p\000o\000N\000a}{subsection.3.4.2}% 161
\BOOKMARK [3][-]{subsubsection.3.4.2.20}{\376\377\000e\000c\000p\000o\000P\000H}{subsection.3.4.2}% 162
\BOOKMARK [3][-]{subsubsection.3.4.2.21}{\376\377\000e\000c\000p\000o\000T\000e\000m\000p\000e\000r\000a\000t\000u\000r\000e}{subsection.3.4.2}% 163
\BOOKMARK [3][-]{subsubsection.3.4.2.22}{\376\377\000e\000c\000p\000o\000U\000r\000e\000a}{subsection.3.4.2}% 164
\BOOKMARK [3][-]{subsubsection.3.4.2.23}{\376\377\000t\000i\000m\000e\000s\000t\000a\000m\000p}{subsection.3.4.2}% 165
\BOOKMARK [0][-]{chapter.4}{\376\377\000F\000i\000l\000e\000\040\000D\000o\000c\000u\000m\000e\000n\000t\000a\000t\000i\000o\000n}{}% 166
\BOOKMARK [1][-]{section.4.1}{\376\377\000c\000r\000c\0001\0006\000.\000c\000\040\000F\000i\000l\000e\000\040\000R\000e\000f\000e\000r\000e\000n\000c\000e}{chapter.4}% 167
\BOOKMARK [2][-]{subsection.4.1.1}{\376\377\000D\000e\000t\000a\000i\000l\000e\000d\000\040\000D\000e\000s\000c\000r\000i\000p\000t\000i\000o\000n}{section.4.1}% 168
\BOOKMARK [2][-]{subsection.4.1.2}{\376\377\000F\000u\000n\000c\000t\000i\000o\000n\000\040\000D\000o\000c\000u\000m\000e\000n\000t\000a\000t\000i\000o\000n}{section.4.1}% 169
\BOOKMARK [3][-]{subsubsection.4.1.2.1}{\376\377\000c\000r\000c\000\137\000r\000e\000f\000l\000e\000c\000t}{subsection.4.1.2}% 170
\BOOKMARK [3][-]{subsubsection.4.1.2.2}{\376\377\000c\000r\000c\000\137\000u\000p\000d\000a\000t\000e}{subsection.4.1.2}% 171
\BOOKMARK [1][-]{section.4.2}{\376\377\000c\000r\000c\0001\0006\000.\000h\000\040\000F\000i\000l\000e\000\040\000R\000e\000f\000e\000r\000e\000n\000c\000e}{chapter.4}% 172
\BOOKMARK [2][-]{subsection.4.2.1}{\376\377\000D\000e\000t\000a\000i\000l\000e\000d\000\040\000D\000e\000s\000c\000r\000i\000p\000t\000i\000o\000n}{section.4.2}% 173
\BOOKMARK [2][-]{subsection.4.2.2}{\376\377\000D\000e\000f\000i\000n\000e\000\040\000D\000o\000c\000u\000m\000e\000n\000t\000a\000t\000i\000o\000n}{section.4.2}% 174
\BOOKMARK [3][-]{subsubsection.4.2.2.1}{\376\377\000C\000R\000C\000\137\000A\000L\000G\000O\000\137\000T\000A\000B\000L\000E\000\137\000D\000R\000I\000V\000E\000N}{subsection.4.2.2}% 175
\BOOKMARK [3][-]{subsubsection.4.2.2.2}{\376\377\000t\000a\000s\000k\000M\000e\000s\000s\000a\000g\000e}{subsection.4.2.2}% 176
\BOOKMARK [2][-]{subsection.4.2.3}{\376\377\000T\000y\000p\000e\000d\000e\000f\000\040\000D\000o\000c\000u\000m\000e\000n\000t\000a\000t\000i\000o\000n}{section.4.2}% 177
\BOOKMARK [3][-]{subsubsection.4.2.3.1}{\376\377\000c\000r\000c\000\137\000t}{subsection.4.2.3}% 178
\BOOKMARK [2][-]{subsection.4.2.4}{\376\377\000F\000u\000n\000c\000t\000i\000o\000n\000\040\000D\000o\000c\000u\000m\000e\000n\000t\000a\000t\000i\000o\000n}{section.4.2}% 179
\BOOKMARK [3][-]{subsubsection.4.2.4.1}{\376\377\000c\000r\000c\000\137\000r\000e\000f\000l\000e\000c\000t}{subsection.4.2.4}% 180
\BOOKMARK [3][-]{subsubsection.4.2.4.2}{\376\377\000c\000r\000c\000\137\000u\000p\000d\000a\000t\000e}{subsection.4.2.4}% 181
\BOOKMARK [1][-]{section.4.3}{\376\377\000c\000s\000v\000p\000a\000r\000s\000e\000l\000i\000b\000.\000c\000\040\000F\000i\000l\000e\000\040\000R\000e\000f\000e\000r\000e\000n\000c\000e}{chapter.4}% 182
\BOOKMARK [2][-]{subsection.4.3.1}{\376\377\000D\000e\000f\000i\000n\000e\000\040\000D\000o\000c\000u\000m\000e\000n\000t\000a\000t\000i\000o\000n}{section.4.3}% 183
\BOOKMARK [3][-]{subsubsection.4.3.1.1}{\376\377\000P\000R\000E\000F\000I\000X}{subsection.4.3.1}% 184
\BOOKMARK [3][-]{subsubsection.4.3.1.2}{\376\377\000S\000E\000L\000E\000C\000T\000\137\000N\000O\000T\000\137\000F\000L\000T}{subsection.4.3.1}% 185
\BOOKMARK [3][-]{subsubsection.4.3.1.3}{\376\377\000S\000E\000L\000E\000C\000T\000\137\000N\000O\000T\000\137\000I\000N\000T}{subsection.4.3.1}% 186
\BOOKMARK [3][-]{subsubsection.4.3.1.4}{\376\377\000t\000a\000s\000k\000M\000e\000s\000s\000a\000g\000e}{subsection.4.3.1}% 187
\BOOKMARK [3][-]{subsubsection.4.3.1.5}{\376\377\000V\000A\000L\000U\000E\000\137\000M\000A\000X\000\137\000C\000H\000A\000R\000S}{subsection.4.3.1}% 188
\BOOKMARK [2][-]{subsection.4.3.2}{\376\377\000F\000u\000n\000c\000t\000i\000o\000n\000\040\000D\000o\000c\000u\000m\000e\000n\000t\000a\000t\000i\000o\000n}{section.4.3}% 189
\BOOKMARK [3][-]{subsubsection.4.3.2.1}{\376\377\000f\000i\000n\000d\000C\000R\000C}{subsection.4.3.2}% 190
\BOOKMARK [3][-]{subsubsection.4.3.2.2}{\376\377\000m\000o\000v\000e\000b\000e\000f\000o\000r\000e\000C\000R\000L\000F}{subsection.4.3.2}% 191
\BOOKMARK [3][-]{subsubsection.4.3.2.3}{\376\377\000p\000a\000r\000s\000e\000L\000i\000n\000e}{subsection.4.3.2}% 192
\BOOKMARK [3][-]{subsubsection.4.3.2.4}{\376\377\000p\000a\000r\000s\000e\000L\000i\000n\000e\000F\000l\000o\000a\000t}{subsection.4.3.2}% 193
\BOOKMARK [3][-]{subsubsection.4.3.2.5}{\376\377\000s\000e\000e\000k\000T\000o\000L\000a\000s\000t\000L\000F}{subsection.4.3.2}% 194
\BOOKMARK [3][-]{subsubsection.4.3.2.6}{\376\377\000s\000t\000r\000n\000l\000e\000n}{subsection.4.3.2}% 195
\BOOKMARK [3][-]{subsubsection.4.3.2.7}{\376\377\000v\000e\000r\000i\000f\000y\000C\000R\000C}{subsection.4.3.2}% 196
\BOOKMARK [3][-]{subsubsection.4.3.2.8}{\376\377\000w\000r\000i\000t\000e\000C\000R\000C}{subsection.4.3.2}% 197
\BOOKMARK [3][-]{subsubsection.4.3.2.9}{\376\377\000w\000r\000i\000t\000e\000F\000l\000o\000a\000t}{subsection.4.3.2}% 198
\BOOKMARK [1][-]{section.4.4}{\376\377\000c\000s\000v\000p\000a\000r\000s\000e\000l\000i\000b\000.\000h\000\040\000F\000i\000l\000e\000\040\000R\000e\000f\000e\000r\000e\000n\000c\000e}{chapter.4}% 199
\BOOKMARK [2][-]{subsection.4.4.1}{\376\377\000D\000e\000f\000i\000n\000e\000\040\000D\000o\000c\000u\000m\000e\000n\000t\000a\000t\000i\000o\000n}{section.4.4}% 200
\BOOKMARK [3][-]{subsubsection.4.4.1.1}{\376\377\000t\000a\000s\000k\000M\000e\000s\000s\000a\000g\000e}{subsection.4.4.1}% 201
\BOOKMARK [2][-]{subsection.4.4.2}{\376\377\000F\000u\000n\000c\000t\000i\000o\000n\000\040\000D\000o\000c\000u\000m\000e\000n\000t\000a\000t\000i\000o\000n}{section.4.4}% 202
\BOOKMARK [3][-]{subsubsection.4.4.2.1}{\376\377\000f\000i\000n\000d\000C\000R\000C}{subsection.4.4.2}% 203
\BOOKMARK [3][-]{subsubsection.4.4.2.2}{\376\377\000m\000o\000v\000e\000b\000e\000f\000o\000r\000e\000C\000R\000L\000F}{subsection.4.4.2}% 204
\BOOKMARK [3][-]{subsubsection.4.4.2.3}{\376\377\000p\000a\000r\000s\000e\000L\000i\000n\000e}{subsection.4.4.2}% 205
\BOOKMARK [3][-]{subsubsection.4.4.2.4}{\376\377\000p\000a\000r\000s\000e\000L\000i\000n\000e\000F\000l\000o\000a\000t}{subsection.4.4.2}% 206
\BOOKMARK [3][-]{subsubsection.4.4.2.5}{\376\377\000s\000e\000e\000k\000T\000o\000L\000a\000s\000t\000L\000F}{subsection.4.4.2}% 207
\BOOKMARK [3][-]{subsubsection.4.4.2.6}{\376\377\000s\000t\000r\000n\000l\000e\000n}{subsection.4.4.2}% 208
\BOOKMARK [3][-]{subsubsection.4.4.2.7}{\376\377\000v\000e\000r\000i\000f\000y\000C\000R\000C}{subsection.4.4.2}% 209
\BOOKMARK [3][-]{subsubsection.4.4.2.8}{\376\377\000w\000r\000i\000t\000e\000C\000R\000C}{subsection.4.4.2}% 210
\BOOKMARK [3][-]{subsubsection.4.4.2.9}{\376\377\000w\000r\000i\000t\000e\000F\000l\000o\000a\000t}{subsection.4.4.2}% 211
\BOOKMARK [1][-]{section.4.5}{\376\377\000p\000s\000t\000d\000i\000n\000t\000.\000h\000\040\000F\000i\000l\000e\000\040\000R\000e\000f\000e\000r\000e\000n\000c\000e}{chapter.4}% 212
\BOOKMARK [2][-]{subsection.4.5.1}{\376\377\000D\000e\000f\000i\000n\000e\000\040\000D\000o\000c\000u\000m\000e\000n\000t\000a\000t\000i\000o\000n}{section.4.5}% 213
\BOOKMARK [3][-]{subsubsection.4.5.1.1}{\376\377\000\137\000P\000S\000T\000D\000I\000N\000T\000\137\000H\000\137\000I\000N\000C\000L\000U\000D\000E\000D}{subsection.4.5.1}% 214
\BOOKMARK [3][-]{subsubsection.4.5.1.2}{\376\377\000I\000N\000T\0001\0006\000\137\000M\000A\000X}{subsection.4.5.1}% 215
\BOOKMARK [3][-]{subsubsection.4.5.1.3}{\376\377\000I\000N\000T\0001\0006\000\137\000M\000I\000N}{subsection.4.5.1}% 216
\BOOKMARK [3][-]{subsubsection.4.5.1.4}{\376\377\000I\000N\000T\0003\0002\000\137\000M\000A\000X}{subsection.4.5.1}% 217
\BOOKMARK [3][-]{subsubsection.4.5.1.5}{\376\377\000I\000N\000T\0003\0002\000\137\000M\000I\000N}{subsection.4.5.1}% 218
\BOOKMARK [3][-]{subsubsection.4.5.1.6}{\376\377\000I\000N\000T\0008\000\137\000M\000A\000X}{subsection.4.5.1}% 219
\BOOKMARK [3][-]{subsubsection.4.5.1.7}{\376\377\000I\000N\000T\0008\000\137\000M\000I\000N}{subsection.4.5.1}% 220
\BOOKMARK [3][-]{subsubsection.4.5.1.8}{\376\377\000I\000N\000T\000\137\000F\000A\000S\000T\0001\0006\000\137\000M\000A\000X}{subsection.4.5.1}% 221
\BOOKMARK [3][-]{subsubsection.4.5.1.9}{\376\377\000I\000N\000T\000\137\000F\000A\000S\000T\0001\0006\000\137\000M\000I\000N}{subsection.4.5.1}% 222
\BOOKMARK [3][-]{subsubsection.4.5.1.10}{\376\377\000I\000N\000T\000\137\000F\000A\000S\000T\0003\0002\000\137\000M\000A\000X}{subsection.4.5.1}% 223
\BOOKMARK [3][-]{subsubsection.4.5.1.11}{\376\377\000I\000N\000T\000\137\000F\000A\000S\000T\0003\0002\000\137\000M\000I\000N}{subsection.4.5.1}% 224
\BOOKMARK [3][-]{subsubsection.4.5.1.12}{\376\377\000I\000N\000T\000\137\000F\000A\000S\000T\0008\000\137\000M\000A\000X}{subsection.4.5.1}% 225
\BOOKMARK [3][-]{subsubsection.4.5.1.13}{\376\377\000I\000N\000T\000\137\000F\000A\000S\000T\0008\000\137\000M\000I\000N}{subsection.4.5.1}% 226
\BOOKMARK [3][-]{subsubsection.4.5.1.14}{\376\377\000I\000N\000T\000\137\000L\000E\000A\000S\000T\0001\0006\000\137\000M\000A\000X}{subsection.4.5.1}% 227
\BOOKMARK [3][-]{subsubsection.4.5.1.15}{\376\377\000I\000N\000T\000\137\000L\000E\000A\000S\000T\0001\0006\000\137\000M\000I\000N}{subsection.4.5.1}% 228
\BOOKMARK [3][-]{subsubsection.4.5.1.16}{\376\377\000I\000N\000T\000\137\000L\000E\000A\000S\000T\0003\0002\000\137\000M\000A\000X}{subsection.4.5.1}% 229
\BOOKMARK [3][-]{subsubsection.4.5.1.17}{\376\377\000I\000N\000T\000\137\000L\000E\000A\000S\000T\0003\0002\000\137\000M\000I\000N}{subsection.4.5.1}% 230
\BOOKMARK [3][-]{subsubsection.4.5.1.18}{\376\377\000I\000N\000T\000\137\000L\000E\000A\000S\000T\0008\000\137\000M\000A\000X}{subsection.4.5.1}% 231
\BOOKMARK [3][-]{subsubsection.4.5.1.19}{\376\377\000I\000N\000T\000\137\000L\000E\000A\000S\000T\0008\000\137\000M\000I\000N}{subsection.4.5.1}% 232
\BOOKMARK [3][-]{subsubsection.4.5.1.20}{\376\377\000I\000N\000T\000M\000A\000X\000\137\000C}{subsection.4.5.1}% 233
\BOOKMARK [3][-]{subsubsection.4.5.1.21}{\376\377\000I\000N\000T\000M\000A\000X\000\137\000M\000A\000X}{subsection.4.5.1}% 234
\BOOKMARK [3][-]{subsubsection.4.5.1.22}{\376\377\000P\000R\000I\000N\000T\000F\000\137\000I\000N\000T\0001\0006\000\137\000D\000E\000C\000\137\000W\000I\000D\000T\000H}{subsection.4.5.1}% 235
\BOOKMARK [3][-]{subsubsection.4.5.1.23}{\376\377\000P\000R\000I\000N\000T\000F\000\137\000I\000N\000T\0001\0006\000\137\000H\000E\000X\000\137\000W\000I\000D\000T\000H}{subsection.4.5.1}% 236
\BOOKMARK [3][-]{subsubsection.4.5.1.24}{\376\377\000P\000R\000I\000N\000T\000F\000\137\000I\000N\000T\0003\0002\000\137\000D\000E\000C\000\137\000W\000I\000D\000T\000H}{subsection.4.5.1}% 237
\BOOKMARK [3][-]{subsubsection.4.5.1.25}{\376\377\000P\000R\000I\000N\000T\000F\000\137\000I\000N\000T\0003\0002\000\137\000H\000E\000X\000\137\000W\000I\000D\000T\000H}{subsection.4.5.1}% 238
\BOOKMARK [3][-]{subsubsection.4.5.1.26}{\376\377\000P\000R\000I\000N\000T\000F\000\137\000I\000N\000T\0006\0004\000\137\000D\000E\000C\000\137\000W\000I\000D\000T\000H}{subsection.4.5.1}% 239
\BOOKMARK [3][-]{subsubsection.4.5.1.27}{\376\377\000P\000R\000I\000N\000T\000F\000\137\000I\000N\000T\0006\0004\000\137\000H\000E\000X\000\137\000W\000I\000D\000T\000H}{subsection.4.5.1}% 240
\BOOKMARK [3][-]{subsubsection.4.5.1.28}{\376\377\000P\000R\000I\000N\000T\000F\000\137\000I\000N\000T\0008\000\137\000D\000E\000C\000\137\000W\000I\000D\000T\000H}{subsection.4.5.1}% 241
\BOOKMARK [3][-]{subsubsection.4.5.1.29}{\376\377\000P\000R\000I\000N\000T\000F\000\137\000I\000N\000T\0008\000\137\000H\000E\000X\000\137\000W\000I\000D\000T\000H}{subsection.4.5.1}% 242
\BOOKMARK [3][-]{subsubsection.4.5.1.30}{\376\377\000P\000R\000I\000N\000T\000F\000\137\000I\000N\000T\000M\000A\000X\000\137\000D\000E\000C\000\137\000W\000I\000D\000T\000H}{subsection.4.5.1}% 243
\BOOKMARK [3][-]{subsubsection.4.5.1.31}{\376\377\000P\000R\000I\000N\000T\000F\000\137\000I\000N\000T\000M\000A\000X\000\137\000H\000E\000X\000\137\000W\000I\000D\000T\000H}{subsection.4.5.1}% 244
\BOOKMARK [3][-]{subsubsection.4.5.1.32}{\376\377\000P\000R\000I\000N\000T\000F\000\137\000I\000N\000T\000M\000A\000X\000\137\000M\000O\000D\000I\000F\000I\000E\000R}{subsection.4.5.1}% 245
\BOOKMARK [3][-]{subsubsection.4.5.1.33}{\376\377\000P\000R\000I\000N\000T\000F\000\137\000L\000E\000A\000S\000T\0001\0006\000\137\000M\000O\000D\000I\000F\000I\000E\000R}{subsection.4.5.1}% 246
\BOOKMARK [3][-]{subsubsection.4.5.1.34}{\376\377\000P\000R\000I\000N\000T\000F\000\137\000L\000E\000A\000S\000T\0003\0002\000\137\000M\000O\000D\000I\000F\000I\000E\000R}{subsection.4.5.1}% 247
\BOOKMARK [3][-]{subsubsection.4.5.1.35}{\376\377\000S\000I\000G\000\137\000A\000T\000O\000M\000I\000C\000\137\000M\000A\000X}{subsection.4.5.1}% 248
\BOOKMARK [3][-]{subsubsection.4.5.1.36}{\376\377\000S\000I\000Z\000E\000\137\000M\000A\000X}{subsection.4.5.1}% 249
\BOOKMARK [3][-]{subsubsection.4.5.1.37}{\376\377\000S\000T\000D\000I\000N\000T\000\137\000H\000\137\000U\000I\000N\000T\000P\000T\000R\000\137\000T\000\137\000D\000E\000F\000I\000N\000E\000D}{subsection.4.5.1}% 250
\BOOKMARK [3][-]{subsubsection.4.5.1.38}{\376\377\000U\000I\000N\000T\0001\0006\000\137\000M\000A\000X}{subsection.4.5.1}% 251
\BOOKMARK [3][-]{subsubsection.4.5.1.39}{\376\377\000U\000I\000N\000T\0003\0002\000\137\000M\000A\000X}{subsection.4.5.1}% 252
\BOOKMARK [3][-]{subsubsection.4.5.1.40}{\376\377\000U\000I\000N\000T\0008\000\137\000M\000A\000X}{subsection.4.5.1}% 253
\BOOKMARK [3][-]{subsubsection.4.5.1.41}{\376\377\000U\000I\000N\000T\000\137\000F\000A\000S\000T\0001\0006\000\137\000M\000A\000X}{subsection.4.5.1}% 254
\BOOKMARK [3][-]{subsubsection.4.5.1.42}{\376\377\000U\000I\000N\000T\000\137\000F\000A\000S\000T\0003\0002\000\137\000M\000A\000X}{subsection.4.5.1}% 255
\BOOKMARK [3][-]{subsubsection.4.5.1.43}{\376\377\000U\000I\000N\000T\000\137\000F\000A\000S\000T\0008\000\137\000M\000A\000X}{subsection.4.5.1}% 256
\BOOKMARK [3][-]{subsubsection.4.5.1.44}{\376\377\000U\000I\000N\000T\000\137\000L\000E\000A\000S\000T\0001\0006\000\137\000M\000A\000X}{subsection.4.5.1}% 257
\BOOKMARK [3][-]{subsubsection.4.5.1.45}{\376\377\000U\000I\000N\000T\000\137\000L\000E\000A\000S\000T\0003\0002\000\137\000M\000A\000X}{subsection.4.5.1}% 258
\BOOKMARK [3][-]{subsubsection.4.5.1.46}{\376\377\000U\000I\000N\000T\000\137\000L\000E\000A\000S\000T\0008\000\137\000M\000A\000X}{subsection.4.5.1}% 259
\BOOKMARK [3][-]{subsubsection.4.5.1.47}{\376\377\000U\000I\000N\000T\000M\000A\000X\000\137\000C}{subsection.4.5.1}% 260
\BOOKMARK [3][-]{subsubsection.4.5.1.48}{\376\377\000U\000I\000N\000T\000M\000A\000X\000\137\000M\000A\000X}{subsection.4.5.1}% 261
\BOOKMARK [3][-]{subsubsection.4.5.1.49}{\376\377\000U\000L\000O\000N\000G\000\137\000L\000O\000N\000G\000\137\000M\000A\000X}{subsection.4.5.1}% 262
\BOOKMARK [2][-]{subsection.4.5.2}{\376\377\000T\000y\000p\000e\000d\000e\000f\000\040\000D\000o\000c\000u\000m\000e\000n\000t\000a\000t\000i\000o\000n}{section.4.5}% 263
\BOOKMARK [3][-]{subsubsection.4.5.2.1}{\376\377\000i\000n\000t\000\137\000f\000a\000s\000t\0001\0006\000\137\000t}{subsection.4.5.2}% 264
\BOOKMARK [3][-]{subsubsection.4.5.2.2}{\376\377\000i\000n\000t\000\137\000f\000a\000s\000t\0003\0002\000\137\000t}{subsection.4.5.2}% 265
\BOOKMARK [3][-]{subsubsection.4.5.2.3}{\376\377\000i\000n\000t\000\137\000f\000a\000s\000t\0008\000\137\000t}{subsection.4.5.2}% 266
\BOOKMARK [3][-]{subsubsection.4.5.2.4}{\376\377\000i\000n\000t\000\137\000l\000e\000a\000s\000t\0001\0006\000\137\000t}{subsection.4.5.2}% 267
\BOOKMARK [3][-]{subsubsection.4.5.2.5}{\376\377\000i\000n\000t\000\137\000l\000e\000a\000s\000t\0003\0002\000\137\000t}{subsection.4.5.2}% 268
\BOOKMARK [3][-]{subsubsection.4.5.2.6}{\376\377\000i\000n\000t\000\137\000l\000e\000a\000s\000t\0008\000\137\000t}{subsection.4.5.2}% 269
\BOOKMARK [3][-]{subsubsection.4.5.2.7}{\376\377\000i\000n\000t\000m\000a\000x\000\137\000t}{subsection.4.5.2}% 270
\BOOKMARK [3][-]{subsubsection.4.5.2.8}{\376\377\000i\000n\000t\000p\000t\000r\000\137\000t}{subsection.4.5.2}% 271
\BOOKMARK [3][-]{subsubsection.4.5.2.9}{\376\377\000u\000i\000n\000t\000\137\000f\000a\000s\000t\0001\0006\000\137\000t}{subsection.4.5.2}% 272
\BOOKMARK [3][-]{subsubsection.4.5.2.10}{\376\377\000u\000i\000n\000t\000\137\000f\000a\000s\000t\0003\0002\000\137\000t}{subsection.4.5.2}% 273
\BOOKMARK [3][-]{subsubsection.4.5.2.11}{\376\377\000u\000i\000n\000t\000\137\000f\000a\000s\000t\0008\000\137\000t}{subsection.4.5.2}% 274
\BOOKMARK [3][-]{subsubsection.4.5.2.12}{\376\377\000u\000i\000n\000t\000\137\000l\000e\000a\000s\000t\0001\0006\000\137\000t}{subsection.4.5.2}% 275
\BOOKMARK [3][-]{subsubsection.4.5.2.13}{\376\377\000u\000i\000n\000t\000\137\000l\000e\000a\000s\000t\0003\0002\000\137\000t}{subsection.4.5.2}% 276
\BOOKMARK [3][-]{subsubsection.4.5.2.14}{\376\377\000u\000i\000n\000t\000\137\000l\000e\000a\000s\000t\0008\000\137\000t}{subsection.4.5.2}% 277
\BOOKMARK [3][-]{subsubsection.4.5.2.15}{\376\377\000u\000i\000n\000t\000m\000a\000x\000\137\000t}{subsection.4.5.2}% 278
\BOOKMARK [1][-]{section.4.6}{\376\377\000t\000y\000p\000e\000d\000e\000f\000s\000N\000e\000p\000h\000r\000o\000n\000.\000h\000\040\000F\000i\000l\000e\000\040\000R\000e\000f\000e\000r\000e\000n\000c\000e}{chapter.4}% 279
\BOOKMARK [2][-]{subsection.4.6.1}{\376\377\000D\000e\000f\000i\000n\000e\000\040\000D\000o\000c\000u\000m\000e\000n\000t\000a\000t\000i\000o\000n}{section.4.6}% 280
\BOOKMARK [3][-]{subsubsection.4.6.1.1}{\376\377\000a\000c\000t\000u\000a\000t\000o\000r\000T\000y\000p\000e}{subsection.4.6.1}% 281
\BOOKMARK [3][-]{subsubsection.4.6.1.2}{\376\377\000s\000e\000n\000s\000o\000r\000T\000y\000p\000e}{subsection.4.6.1}% 282
\BOOKMARK [2][-]{subsection.4.6.2}{\376\377\000T\000y\000p\000e\000d\000e\000f\000\040\000D\000o\000c\000u\000m\000e\000n\000t\000a\000t\000i\000o\000n}{section.4.6}% 283
\BOOKMARK [3][-]{subsubsection.4.6.2.1}{\376\377\000t\000d\000A\000c\000t\000u\000a\000t\000o\000r\000s}{subsection.4.6.2}% 284
\BOOKMARK [3][-]{subsubsection.4.6.2.2}{\376\377\000t\000d\000P\000a\000r\000a\000m\000e\000t\000e\000r\000s\000S\000C\000C}{subsection.4.6.2}% 285
\BOOKMARK [3][-]{subsubsection.4.6.2.3}{\376\377\000t\000d\000P\000h\000y\000s\000i\000c\000a\000l\000S\000e\000n\000s\000o\000r\000R\000e\000a\000d\000o\000u\000t}{subsection.4.6.2}% 286
\BOOKMARK [3][-]{subsubsection.4.6.2.4}{\376\377\000t\000d\000P\000h\000y\000s\000i\000o\000l\000o\000g\000i\000c\000a\000l\000S\000e\000n\000s\000o\000r\000R\000e\000a\000d\000o\000u\000t}{subsection.4.6.2}% 287
\BOOKMARK [1][-]{section.4.7}{\376\377\000u\000n\000i\000f\000i\000e\000d\000\137\000d\000e\000l\000e\000t\000e\000.\000c\000\040\000F\000i\000l\000e\000\040\000R\000e\000f\000e\000r\000e\000n\000c\000e}{chapter.4}% 288
\BOOKMARK [2][-]{subsection.4.7.1}{\376\377\000D\000e\000f\000i\000n\000e\000\040\000D\000o\000c\000u\000m\000e\000n\000t\000a\000t\000i\000o\000n}{section.4.7}% 289
\BOOKMARK [3][-]{subsubsection.4.7.1.1}{\376\377\000P\000R\000E\000F\000I\000X}{subsection.4.7.1}% 290
\BOOKMARK [3][-]{subsubsection.4.7.1.2}{\376\377\000t\000a\000s\000k\000M\000e\000s\000s\000a\000g\000e}{subsection.4.7.1}% 291
\BOOKMARK [2][-]{subsection.4.7.2}{\376\377\000F\000u\000n\000c\000t\000i\000o\000n\000\040\000D\000o\000c\000u\000m\000e\000n\000t\000a\000t\000i\000o\000n}{section.4.7}% 292
\BOOKMARK [3][-]{subsubsection.4.7.2.1}{\376\377\000m\000a\000i\000n}{subsection.4.7.2}% 293
\BOOKMARK [3][-]{subsubsection.4.7.2.2}{\376\377\000u\000n\000i\000f\000i\000e\000d\000\137\000d\000e\000l\000e\000t\000e}{subsection.4.7.2}% 294
\BOOKMARK [1][-]{section.4.8}{\376\377\000u\000n\000i\000f\000i\000e\000d\000\137\000d\000e\000l\000e\000t\000e\000.\000h\000\040\000F\000i\000l\000e\000\040\000R\000e\000f\000e\000r\000e\000n\000c\000e}{chapter.4}% 295
\BOOKMARK [2][-]{subsection.4.8.1}{\376\377\000F\000u\000n\000c\000t\000i\000o\000n\000\040\000D\000o\000c\000u\000m\000e\000n\000t\000a\000t\000i\000o\000n}{section.4.8}% 296
\BOOKMARK [3][-]{subsubsection.4.8.1.1}{\376\377\000u\000n\000i\000f\000i\000e\000d\000\137\000d\000e\000l\000e\000t\000e}{subsection.4.8.1}% 297
\BOOKMARK [1][-]{section.4.9}{\376\377\000u\000n\000i\000f\000i\000e\000d\000\137\000r\000e\000a\000d\000.\000c\000\040\000F\000i\000l\000e\000\040\000R\000e\000f\000e\000r\000e\000n\000c\000e}{chapter.4}% 298
\BOOKMARK [2][-]{subsection.4.9.1}{\376\377\000D\000e\000f\000i\000n\000e\000\040\000D\000o\000c\000u\000m\000e\000n\000t\000a\000t\000i\000o\000n}{section.4.9}% 299
\BOOKMARK [3][-]{subsubsection.4.9.1.1}{\376\377\000P\000R\000E\000F\000I\000X}{subsection.4.9.1}% 300
\BOOKMARK [3][-]{subsubsection.4.9.1.2}{\376\377\000t\000a\000s\000k\000M\000e\000s\000s\000a\000g\000e}{subsection.4.9.1}% 301
\BOOKMARK [2][-]{subsection.4.9.2}{\376\377\000F\000u\000n\000c\000t\000i\000o\000n\000\040\000D\000o\000c\000u\000m\000e\000n\000t\000a\000t\000i\000o\000n}{section.4.9}% 302
\BOOKMARK [3][-]{subsubsection.4.9.2.1}{\376\377\000e\000x\000t\000r\000a\000c\000t\000\137\000t\000i\000m\000e\000s\000t\000a\000m\000p}{subsection.4.9.2}% 303
\BOOKMARK [3][-]{subsubsection.4.9.2.2}{\376\377\000m\000a\000i\000n}{subsection.4.9.2}% 304
\BOOKMARK [3][-]{subsubsection.4.9.2.3}{\376\377\000R\000e\000a\000d\000I\000n\000M\000e\000m\000b\000e\000r\000V\000a\000l\000u\000e\000s}{subsection.4.9.2}% 305
\BOOKMARK [3][-]{subsubsection.4.9.2.4}{\376\377\000u\000n\000i\000f\000i\000e\000d\000\137\000r\000e\000a\000d}{subsection.4.9.2}% 306
\BOOKMARK [1][-]{section.4.10}{\376\377\000u\000n\000i\000f\000i\000e\000d\000\137\000r\000e\000a\000d\000.\000h\000\040\000F\000i\000l\000e\000\040\000R\000e\000f\000e\000r\000e\000n\000c\000e}{chapter.4}% 307
\BOOKMARK [2][-]{subsection.4.10.1}{\376\377\000D\000e\000f\000i\000n\000e\000\040\000D\000o\000c\000u\000m\000e\000n\000t\000a\000t\000i\000o\000n}{section.4.10}% 308
\BOOKMARK [3][-]{subsubsection.4.10.1.1}{\376\377\000t\000a\000s\000k\000M\000e\000s\000s\000a\000g\000e}{subsection.4.10.1}% 309
\BOOKMARK [2][-]{subsection.4.10.2}{\376\377\000F\000u\000n\000c\000t\000i\000o\000n\000\040\000D\000o\000c\000u\000m\000e\000n\000t\000a\000t\000i\000o\000n}{section.4.10}% 310
\BOOKMARK [3][-]{subsubsection.4.10.2.1}{\376\377\000e\000x\000t\000r\000a\000c\000t\000\137\000t\000i\000m\000e\000s\000t\000a\000m\000p}{subsection.4.10.2}% 311
\BOOKMARK [3][-]{subsubsection.4.10.2.2}{\376\377\000R\000e\000a\000d\000I\000n\000M\000e\000m\000b\000e\000r\000V\000a\000l\000u\000e\000s}{subsection.4.10.2}% 312
\BOOKMARK [3][-]{subsubsection.4.10.2.3}{\376\377\000u\000n\000i\000f\000i\000e\000d\000\137\000r\000e\000a\000d}{subsection.4.10.2}% 313
\BOOKMARK [1][-]{section.4.11}{\376\377\000u\000n\000i\000f\000i\000e\000d\000\137\000w\000r\000i\000t\000e\000.\000c\000\040\000F\000i\000l\000e\000\040\000R\000e\000f\000e\000r\000e\000n\000c\000e}{chapter.4}% 314
\BOOKMARK [2][-]{subsection.4.11.1}{\376\377\000D\000e\000f\000i\000n\000e\000\040\000D\000o\000c\000u\000m\000e\000n\000t\000a\000t\000i\000o\000n}{section.4.11}% 315
\BOOKMARK [3][-]{subsubsection.4.11.1.1}{\376\377\000P\000R\000E\000F\000I\000X}{subsection.4.11.1}% 316
\BOOKMARK [3][-]{subsubsection.4.11.1.2}{\376\377\000t\000a\000s\000k\000M\000e\000s\000s\000a\000g\000e}{subsection.4.11.1}% 317
\BOOKMARK [2][-]{subsection.4.11.2}{\376\377\000F\000u\000n\000c\000t\000i\000o\000n\000\040\000D\000o\000c\000u\000m\000e\000n\000t\000a\000t\000i\000o\000n}{section.4.11}% 318
\BOOKMARK [3][-]{subsubsection.4.11.2.1}{\376\377\000u\000n\000i\000f\000i\000e\000d\000\137\000w\000r\000i\000t\000e}{subsection.4.11.2}% 319
\BOOKMARK [3][-]{subsubsection.4.11.2.2}{\376\377\000w\000r\000i\000t\000e\000O\000u\000t\000M\000e\000m\000b\000e\000r\000V\000a\000l\000u\000e\000s}{subsection.4.11.2}% 320
\BOOKMARK [1][-]{section.4.12}{\376\377\000u\000n\000i\000f\000i\000e\000d\000\137\000w\000r\000i\000t\000e\000.\000h\000\040\000F\000i\000l\000e\000\040\000R\000e\000f\000e\000r\000e\000n\000c\000e}{chapter.4}% 321
\BOOKMARK [2][-]{subsection.4.12.1}{\376\377\000D\000e\000f\000i\000n\000e\000\040\000D\000o\000c\000u\000m\000e\000n\000t\000a\000t\000i\000o\000n}{section.4.12}% 322
\BOOKMARK [3][-]{subsubsection.4.12.1.1}{\376\377\000D\000B\000U\000F\000F\000E\000R\000\137\000C\000S\000V\000L\000I\000N\000E\000\137\000S\000I\000Z\000E}{subsection.4.12.1}% 323
\BOOKMARK [3][-]{subsubsection.4.12.1.2}{\376\377\000F\000I\000L\000E\000N\000A\000M\000E\000\137\000L\000E\000N\000G\000T\000H}{subsection.4.12.1}% 324
\BOOKMARK [3][-]{subsubsection.4.12.1.3}{\376\377\000S\000E\000L\000E\000C\000T\000\137\000N\000O\000T\000\137\000F\000L\000T}{subsection.4.12.1}% 325
\BOOKMARK [3][-]{subsubsection.4.12.1.4}{\376\377\000S\000E\000L\000E\000C\000T\000\137\000N\000O\000T\000\137\000I\000N\000T}{subsection.4.12.1}% 326
\BOOKMARK [3][-]{subsubsection.4.12.1.5}{\376\377\000t\000a\000s\000k\000M\000e\000s\000s\000a\000g\000e}{subsection.4.12.1}% 327
\BOOKMARK [2][-]{subsection.4.12.2}{\376\377\000F\000u\000n\000c\000t\000i\000o\000n\000\040\000D\000o\000c\000u\000m\000e\000n\000t\000a\000t\000i\000o\000n}{section.4.12}% 328
\BOOKMARK [3][-]{subsubsection.4.12.2.1}{\376\377\000u\000n\000i\000f\000i\000e\000d\000\137\000w\000r\000i\000t\000e}{subsection.4.12.2}% 329
\BOOKMARK [3][-]{subsubsection.4.12.2.2}{\376\377\000w\000r\000i\000t\000e\000O\000u\000t\000M\000e\000m\000b\000e\000r\000V\000a\000l\000u\000e\000s}{subsection.4.12.2}% 330
