State;defSpeedBp_mlPmin;defSpeedFp_mlPmin;defPol_V;direction;duration_sec;
1;0;0;0;1;0;CRC:6903;
4;100;20;40;1;40;CRC:46a1;
5;10;5;11;1;120;CRC:96ed;
6;100;30;0;1;120;CRC:9bc4;
7;10;5;22;0;120;CRC:c339;
2;0;0;0;0;0;CRC:9106;
3;10;0;0;1;0;CRC:9a7e;
